#	accession	name	accession	to	from
#-------------------	--------------------	---------	------	----	---------------------
m.44682	SWIRM	3e-29	101.9	0.98	g.44682
m.59275	SWIRM	1.2e-13	51.9	0.92	g.59275
m.75114	SWIRM	4.3e-08	34.1	0.90	g.75114
