#	accession	name	accession	to	from
#-------------------	--------------------	---------	------	----	---------------------
HMIM007141-PA	PHD_3	0.023	15.4	0.72	pep
HMIM005257-PA	PHD_3	1.9	9.3	0.59	pep
HMIM005257-PA	PHD_3	1.9	9.3	0.70	pep
