#	accession	name	accession	to	from
#-------------------	--------------------	---------	------	----	---------------------
HMIM014253-PA	PHD_4	0.00013	22.3	0.82	pep
HMIM014253-PA	PHD_4	0.00013	22.3	0.78	pep
HMIM014253-PA	PHD_4	0.00013	22.3	0.73	pep
