XP_028413636.1       -           1021 zf-CW                PF07496.16    48   1.2e-17   64.2   4.4   1   1   1.2e-20   2.8e-17   63.1   4.4     1    48   422   469   422   469 0.97 MORC family CW-type zinc finger protein 3-like [Dendronephthya gigantea]
XP_028411089.1       -            738 Amino_oxidase        PF01593.25   452  9.1e-121  405.0   0.1   1   1    8e-123  2.9e-120  403.3   0.1     1   451   184   724   184   725 0.91 lysine-specific histone demethylase 1A-like isoform X2 [Dendronephthya gigantea]
XP_028408076.1       -            525 F-box                PF00646.34    48   4.4e-12   46.2   2.3   1   1   4.7e-14   1.4e-11   44.6   2.3     3    44   189   230   188   233 0.93 F-box/LRR-repeat protein 5-like [Dendronephthya gigantea]
XP_028406138.1       -            680 ASXH                 PF13919.7    139   7.4e-36  123.9   0.5   1   2     1e-39   7.4e-36  123.9   0.5     3   139   279   402   277   402 0.95 putative Polycomb group protein ASXL2 [Dendronephthya gigantea]
XP_028398922.1       -            281 MBD                  PF01429.20    77     6e-22   77.8   0.1   1   1     5e-25   1.8e-21   76.3   0.1     2    75    14    82    13    84 0.94 methyl-CpG-binding domain protein 2-like [Dendronephthya gigantea]
XP_028406138.1       -            680 HARE-HTH             PF05066.14    72   4.2e-13   50.1   0.0   1   1   1.8e-16   1.3e-12   48.6   0.0     2    66    10    75     9    81 0.93 putative Polycomb group protein ASXL2 [Dendronephthya gigantea]
XP_028406138.1       -            680 PHD_3                PF13922.7     69   2.8e-14   53.9   7.8   1   1   3.2e-17   1.3e-13   51.8   7.8    18    68   625   679   614   680 0.77 putative Polycomb group protein ASXL2 [Dendronephthya gigantea]
XP_028396442.1       -           1000 PHD_4                PF16866.6     68   1.3e-09   38.6  14.2   1   2       1.2   1.7e+03   -0.2   1.3    28    47   511   530   487   540 0.64 lysine-specific demethylase 2B-like [Dendronephthya gigantea]
XP_028417710.1       -            552 SKG6                 PF08693.11    38   2.7e-07   30.6   1.8   1   1   2.1e-09   4.8e-07   29.8   1.8     5    37   202   233   200   234 0.79 uncharacterized protein LOC114542166 isoform X2 [Dendronephthya gigantea]
XP_028395111.1       -           1329 SWIRM                PF04433.18    90   6.3e-32  110.4   0.1   1   1   2.9e-35   1.6e-31  109.1   0.1     1    90   453   538   453   538 0.98 SWI/SNF complex subunit SMARCC1-like [Dendronephthya gigantea]
