NP_001190470.1       -           1507 HARE-HTH             PF05066.14    72   1.2e-17   65.3   0.1   1   3   1.8e-20   8.7e-17   62.6   0.0     1    71   696   764   696   765 0.98 Homeodomain-like transcriptional regulator [Arabidopsis thaliana]
NP_001190470.1       -           1507 HARE-HTH             PF05066.14    72   1.2e-17   65.3   0.1   2   3       1.8   8.6e+03   -1.4   0.0    57    69  1101  1113  1093  1115 0.88 Homeodomain-like transcriptional regulator [Arabidopsis thaliana]
NP_001190470.1       -           1507 HARE-HTH             PF05066.14    72   1.2e-17   65.3   0.1   3   3        10   4.8e+04   -4.1   0.0    43    62  1157  1174  1155  1177 0.77 Homeodomain-like transcriptional regulator [Arabidopsis thaliana]
NP_001318738.1       -           1694 HARE-HTH             PF05066.14    72   1.5e-17   65.1   0.0   1   2   2.1e-20     1e-16   62.4   0.0     1    71   696   764   696   765 0.98 Homeodomain-like transcriptional regulator [Arabidopsis thaliana]
NP_001318738.1       -           1694 HARE-HTH             PF05066.14    72   1.5e-17   65.1   0.0   2   2         2   9.7e+03   -1.6   0.0    57    69  1101  1113  1093  1115 0.88 Homeodomain-like transcriptional regulator [Arabidopsis thaliana]
NP_187289.1          -            380 F-box                PF00646.34    48   2.2e-13   51.1   0.2   1   1     1e-14   5.1e-13   49.9   0.2     1    47    31    86    31    87 0.96 tubby-like protein 9 [Arabidopsis thaliana]
NP_001319391.1       -            455 F-box                PF00646.34    48   1.4e-11   45.3   0.8   1   1   8.9e-13   4.5e-11   43.7   0.8     2    42    56   104    55   109 0.94 tubby like protein 1 [Arabidopsis thaliana]
NP_177816.1          -            455 F-box                PF00646.34    48   1.4e-11   45.3   0.8   1   1   8.9e-13   4.5e-11   43.7   0.8     2    42    56   104    55   109 0.94 tubby like protein 1 [Arabidopsis thaliana]
NP_849894.1          -            455 F-box                PF00646.34    48   1.4e-11   45.3   0.8   1   1   8.9e-13   4.5e-11   43.7   0.8     2    42    56   104    55   109 0.94 tubby like protein 1 [Arabidopsis thaliana]
NP_188911.2          -            379 F-box                PF00646.34    48   1.4e-11   45.3   1.1   1   1   9.5e-13   4.8e-11   43.6   1.1     4    46     3    45     2    47 0.95 F-box/associated interaction domain protein [Arabidopsis thaliana]
NP_193491.2          -            510 ASXH                 PF13919.7    139     2e-09   39.0   0.5   1   2       3.2   3.8e+04   -4.0   0.1    28    49   170   191   165   192 0.69 GATA transcription factor 26 [Arabidopsis thaliana]
NP_193491.2          -            510 ASXH                 PF13919.7    139     2e-09   39.0   0.5   2   2   1.6e-13     2e-09   39.0   0.5     6   120   270   369   265   404 0.84 GATA transcription factor 26 [Arabidopsis thaliana]
NP_001190754.1       -            514 ASXH                 PF13919.7    139     2e-09   39.0   0.5   1   2       3.2   3.9e+04   -4.0   0.1    28    49   174   195   169   196 0.69 GATA transcription factor 26 [Arabidopsis thaliana]
NP_001190754.1       -            514 ASXH                 PF13919.7    139     2e-09   39.0   0.5   2   2   1.6e-13     2e-09   39.0   0.5     6   120   274   373   269   408 0.84 GATA transcription factor 26 [Arabidopsis thaliana]
NP_199525.2          -            470 ASXH                 PF13919.7    139     2e-09   39.0   1.1   1   1   4.5e-13   5.4e-09   37.6   1.1     5   115   235   329   231   354 0.81 GATA transcription factor 27 [Arabidopsis thaliana]
NP_190242.1          -            182 MBD                  PF01429.20    77   3.1e-27   95.5   0.2   1   1   3.6e-30   5.1e-27   94.8   0.2     2    76    26   136    25   137 0.98 methyl-CPG-binding domain protein 5 [Arabidopsis thaliana]
NP_186795.1          -           2176 MBD                  PF01429.20    77   6.9e-25   87.9   0.0   1   1   1.3e-27   1.8e-24   86.6   0.0     1    76   258   373   258   374 0.98 methyl-CPG-binding domain 9 [Arabidopsis thaliana]
NP_200788.1          -            306 MBD                  PF01429.20    77   2.2e-24   86.3   1.2   1   3   1.3e-06    0.0019   19.3   0.0     7    54    27    73    21    96 0.82 methyl-CPG-binding domain 7 [Arabidopsis thaliana]
NP_200788.1          -            306 MBD                  PF01429.20    77   2.2e-24   86.3   1.2   2   3   2.4e-10   3.4e-07   31.2   0.3    10    64   115   167   110   171 0.87 methyl-CPG-binding domain 7 [Arabidopsis thaliana]
NP_200788.1          -            306 MBD                  PF01429.20    77   2.2e-24   86.3   1.2   3   3   7.3e-11     1e-07   32.9   0.0     5    58   176   227   172   245 0.85 methyl-CPG-binding domain 7 [Arabidopsis thaliana]
NP_001319957.1       -           1628 Amino_oxidase        PF01593.25   452  1.2e-120  405.4   0.1   1   1  4.4e-123  2.2e-120  404.5   0.0     2   452   628  1102   627  1102 0.98 LSD1-like 3 [Arabidopsis thaliana]
NP_001328664.1       -           1628 Amino_oxidase        PF01593.25   452  1.2e-120  405.4   0.1   1   1  4.4e-123  2.2e-120  404.5   0.0     2   452   628  1102   627  1102 0.98 LSD1-like 3 [Arabidopsis thaliana]
NP_001328665.1       -           1628 Amino_oxidase        PF01593.25   452  1.2e-120  405.4   0.1   1   1  4.4e-123  2.2e-120  404.5   0.0     2   452   628  1102   627  1102 0.98 LSD1-like 3 [Arabidopsis thaliana]
NP_001328666.1       -           1628 Amino_oxidase        PF01593.25   452  1.2e-120  405.4   0.1   1   1  4.4e-123  2.2e-120  404.5   0.0     2   452   628  1102   627  1102 0.98 LSD1-like 3 [Arabidopsis thaliana]
NP_193364.5          -           1628 Amino_oxidase        PF01593.25   452  1.2e-120  405.4   0.1   1   1  4.4e-123  2.2e-120  404.5   0.0     2   452   628  1102   627  1102 0.98 LSD1-like 3 [Arabidopsis thaliana]
NP_680558.2          -            280 PHD_3                PF13922.7     69     0.068   14.9   1.4   1   2   2.8e-06     0.068   14.9   1.4    43    63   118   138   102   140 0.79 Cysteine/Histidine-rich C1 domain family protein [Arabidopsis thaliana]
NP_680558.2          -            280 PHD_3                PF13922.7     69     0.068   14.9   1.4   2   2         2   4.8e+04   -4.4   1.8    46    49   177   180   163   191 0.60 Cysteine/Histidine-rich C1 domain family protein [Arabidopsis thaliana]
NP_192891.1          -            525 PHD_3                PF13922.7     69         7    8.5  10.1   1   2   8.6e-05       2.1   10.2   1.7    43    63   181   201   166   203 0.77 Cysteine/Histidine-rich C1 domain family protein [Arabidopsis thaliana]
NP_192891.1          -            525 PHD_3                PF13922.7     69         7    8.5  10.1   2   2     0.057   1.4e+03    1.1   1.6    38    59   317   338   305   342 0.77 Cysteine/Histidine-rich C1 domain family protein [Arabidopsis thaliana]
#
NP_001324817.1       -            407 SWIRM                PF04433.18    90     2e-25   90.3   0.5   1   2   3.5e-28   6.5e-25   88.7   0.5     1    90    16   101    16   101 0.97 SWITCH/sucrose nonfermenting 3A [Arabidopsis thaliana]
NP_001324817.1       -            407 SWIRM                PF04433.18    90     2e-25   90.3   0.5   2   2       8.1   1.5e+04   -2.2   0.0    20    48   199   231   196   252 0.70 SWITCH/sucrose nonfermenting 3A [Arabidopsis thaliana]
NP_850476.1          -            512 SWIRM                PF04433.18    90     4e-25   89.4   1.5   1   1     5e-28   9.4e-25   88.2   0.5     1    90    16   101    16   101 0.97 SWITCH/sucrose nonfermenting 3A [Arabidopsis thaliana]
NP_180919.2          -            469 SWIRM                PF04433.18    90   1.9e-23   84.0   2.0   1   2   5.9e-26   1.1e-22   81.5   0.1     1    90    51   136    51   136 0.96 switch subunit 3 [Arabidopsis thaliana]
NP_180919.2          -            469 SWIRM                PF04433.18    90   1.9e-23   84.0   2.0   2   2      0.66   1.2e+03    1.3   0.3     4    44   387   425   384   450 0.75 switch subunit 3 [Arabidopsis thaliana]
NP_001329807.1       -           1040 zf-CW                PF07496.16    48   8.9e-16   59.0   4.5   1   1   1.1e-18   2.3e-15   57.7   4.5     1    48   399   445   399   445 0.96 CW-type Zinc Finger [Arabidopsis thaliana]
NP_193308.2          -           1059 zf-CW                PF07496.16    48     9e-16   59.0   4.5   1   1   1.1e-18   2.3e-15   57.7   4.5     1    48   418   464   418   464 0.96 CW-type Zinc Finger [Arabidopsis thaliana]
NP_001319823.1       -           1403 zf-CW                PF07496.16    48   3.5e-15   57.1   1.1   1   1   3.4e-18   7.1e-15   56.1   1.1     1    48   570   616   570   616 0.96 CW-type Zinc Finger [Arabidopsis thaliana]
NP_001326601.1       -           1403 zf-CW                PF07496.16    48   3.5e-15   57.1   1.1   1   1   3.4e-18   7.1e-15   56.1   1.1     1    48   570   616   570   616 0.96 CW-type Zinc Finger [Arabidopsis thaliana]
NP_001326602.1       -           1403 zf-CW                PF07496.16    48   3.5e-15   57.1   1.1   1   1   3.4e-18   7.1e-15   56.1   1.1     1    48   570   616   570   616 0.96 CW-type Zinc Finger [Arabidopsis thaliana]
NP_001032055.1       -            804 PHD_4                PF16866.6     68     0.025   16.0   0.7   1   1   2.3e-05     0.044   15.2   0.7     4    47   360   405   357   419 0.79 splicing factor-like protein [Arabidopsis thaliana]
NP_199943.1          -            804 PHD_4                PF16866.6     68     0.025   16.0   0.7   1   1   2.3e-05     0.044   15.2   0.7     4    47   360   405   357   419 0.79 splicing factor-like protein [Arabidopsis thaliana]
NP_851169.1          -            804 PHD_4                PF16866.6     68     0.025   16.0   0.7   1   1   2.3e-05     0.044   15.2   0.7     4    47   360   405   357   419 0.79 splicing factor-like protein [Arabidopsis thaliana]
NP_001322296.1       -            202 PHD_4                PF16866.6     68       0.2   13.1   1.6   1   4     0.089   1.7e+02    3.7   2.5    33    50    23    40     5    56 0.78 cysteine/histidine-rich C1 domain protein [Arabidopsis thaliana]
NP_001322296.1       -            202 PHD_4                PF16866.6     68       0.2   13.1   1.6   2   4       2.4   4.6e+03   -0.8   0.4     5    11    65    71    61    77 0.71 cysteine/histidine-rich C1 domain protein [Arabidopsis thaliana]
NP_001328465.1       -            502 SKG6                 PF08693.11    38   0.00028   21.7   1.1   1   1   8.4e-07    0.0006   20.6   1.1     8    35   271   297   266   304 0.81 cysteine-rich RLK (RECEPTOR-like protein kinase) 12 [Arabidopsis thaliana]
NP_001320040.1       -            659 SKG6                 PF08693.11    38   0.00034   21.4   1.1   1   1   1.2e-06   0.00084   20.1   1.1     8    35   271   297   266   304 0.81 cysteine-rich RLK (RECEPTOR-like protein kinase) 12 [Arabidopsis thaliana]
NP_001328178.1       -            616 SKG6                 PF08693.11    38   0.00091   20.0   2.5   1   1   2.9e-06    0.0021   18.8   2.5     6    36   260   289   257   292 0.88 cysteine-rich RLK (RECEPTOR-like protein kinase) 20 [Arabidopsis thaliana]
NP_001328177.1       -            664 SKG6                 PF08693.11    38   0.00094   20.0   2.5   1   1   3.2e-06    0.0023   18.7   2.5     6    36   260   289   257   292 0.88 cysteine-rich RLK (RECEPTOR-like protein kinase) 20 [Arabidopsis thaliana]
NP_001320044.1       -            666 SKG6                 PF08693.11    38   0.00095   20.0   2.5   1   1   3.2e-06    0.0023   18.7   2.5     6    36   260   289   257   292 0.88 cysteine-rich RLK (RECEPTOR-like protein kinase) 20 [Arabidopsis thaliana]
