#                                                                            --- full sequence --- -------------- this domain -------------   hmm coord   ali coord   env coord
# target name        accession   tlen query name           accession   qlen   E-value  score  bias   #  of  c-Evalue  i-Evalue  score  bias  from    to  from    to  from    to  acc description of target
#------------------- ---------- ----- -------------------- ---------- ----- --------- ------ ----- --- --- --------- --------- ------ ----- ----- ----- ----- ----- ----- ----- ---- ---------------------
RDD42409.1           -            415 F-box                PF00646.34    48   5.2e-11   41.6   0.1   1   1   4.2e-13   1.1e-10   40.5   0.1     2    47     7    52     6    53 0.95 F-box only protein 31 [Trichoplax sp. H2]
RDD45982.1           -            626 F-box                PF00646.34    48   6.7e-11   41.2   1.2   1   1   5.2e-13   1.4e-10   40.2   1.2     4    47   120   163   117   164 0.95 F-box/WD repeat-containing protein 8 [Trichoplax sp. H2]
RDD42123.1           -           1046 F-box                PF00646.34    48   1.2e-10   40.5   0.8   1   1   1.3e-12   3.5e-10   38.9   0.8     5    43    30    68    26    72 0.91 F-box only protein 10 [Trichoplax sp. H2]
RDD38492.1           -            436 F-box                PF00646.34    48   7.3e-10   37.9   2.1   1   2   1.2e-11   3.2e-09   35.9   0.2     3    43    26    66    24    71 0.88 F-box/LRR-repeat protein 20 [Trichoplax sp. H2]
RDD38492.1           -            436 F-box                PF00646.34    48   7.3e-10   37.9   2.1   2   2       1.9     5e+02    0.2   0.1    33    47   296   310   295   311 0.87 F-box/LRR-repeat protein 20 [Trichoplax sp. H2]
RDD47310.1           -            528 F-box                PF00646.34    48     9e-10   37.6   2.6   1   2   8.2e-11   2.2e-08   33.2   0.1     3    47   107   151   105   152 0.94 F-box/WD repeat-containing protein 7 [Trichoplax sp. H2]
RDD47310.1           -            528 F-box                PF00646.34    48     9e-10   37.6   2.6   2   2      0.12        32    4.0   0.3    33    44   497   508   497   510 0.94 F-box/WD repeat-containing protein 7 [Trichoplax sp. H2]
RDD44855.1           -            804 F-box                PF00646.34    48   1.3e-09   37.1   1.8   1   1   1.6e-11   4.3e-09   35.5   1.8     3    46   286   329   284   331 0.93 F-box/WD repeat-containing protein 7 [Trichoplax sp. H2]
RDD41725.1           -            529 F-box                PF00646.34    48     2e-09   36.5   2.3   1   2   8.2e-11   2.2e-08   33.2   0.4     2    44    16    58    15    61 0.92 hypothetical protein TrispH2_006132 [Trichoplax sp. H2]
RDD41725.1           -            529 F-box                PF00646.34    48     2e-09   36.5   2.3   2   2       1.3   3.5e+02    0.7   0.1    30    41   103   114    95   119 0.67 hypothetical protein TrispH2_006132 [Trichoplax sp. H2]
RDD42399.1           -            422 F-box                PF00646.34    48   2.5e-09   36.2   0.1   1   1   2.4e-11   6.3e-09   34.9   0.1     4    46     2    45     1    46 0.95 F-box only protein 42 [Trichoplax sp. H2]
RDD42941.1           -            700 F-box                PF00646.34    48   6.9e-09   34.8   1.4   1   1   8.7e-11   2.3e-08   33.1   1.4     6    47   315   356   311   357 0.94 F-box/WD repeat-containing protein 7 [Trichoplax sp. H2]
RDD42361.1           -            531 F-box                PF00646.34    48   3.2e-08   32.7   0.2   1   1   2.4e-10   6.3e-08   31.8   0.2    10    47   119   156    61   157 0.91 F-box/WD repeat-containing protein 1A [Trichoplax sp. H2]
RDD44230.1           -            553 F-box                PF00646.34    48   4.6e-08   32.2   0.0   1   1   4.9e-10   1.3e-07   30.8   0.0     2    46     2    46     1    48 0.94 hypothetical protein TrispH2_004644 [Trichoplax sp. H2]
RDD43671.1           -            424 F-box                PF00646.34    48   4.9e-08   32.1   0.5   1   1   4.4e-10   1.2e-07   30.9   0.5     2    47   175   225   174   226 0.95 F-box only protein 9 [Trichoplax sp. H2]
RDD39532.1           -            467 F-box                PF00646.34    48   2.2e-07   30.0   1.0   1   1   2.8e-09   7.5e-07   28.3   1.0     6    46    59    99    54   101 0.92 F-box/WD repeat-containing protein 2 [Trichoplax sp. H2]
RDD46127.1           -            364 F-box                PF00646.34    48   3.7e-07   29.3   0.6   1   1     3e-09     8e-07   28.2   0.6     7    40    16    48    13    55 0.89 F-box only protein 22 [Trichoplax sp. H2]
RDD45684.1           -            762 F-box                PF00646.34    48   3.8e-07   29.3   4.3   1   1   4.3e-09   1.1e-06   27.7   4.3     2    41    21    60    20    65 0.92 Cyclin-F [Trichoplax sp. H2]
RDD40315.1           -           1439 F-box                PF00646.34    48   4.4e-07   29.1   2.4   1   3       6.3   1.7e+03   -1.5   1.3    28    44   799   815   798   818 0.86 F-box/LRR-repeat protein 7 [Trichoplax sp. H2]
RDD40315.1           -           1439 F-box                PF00646.34    48   4.4e-07   29.1   2.4   2   3   1.7e-09   4.4e-07   29.1   2.4     2    47  1037  1082  1036  1083 0.92 F-box/LRR-repeat protein 7 [Trichoplax sp. H2]
RDD40315.1           -           1439 F-box                PF00646.34    48   4.4e-07   29.1   2.4   3   3         7   1.8e+03   -1.6   0.0     8    29  1163  1184  1161  1185 0.90 F-box/LRR-repeat protein 7 [Trichoplax sp. H2]
RDD45992.1           -            787 F-box                PF00646.34    48   6.7e-07   28.5   0.1   1   1   2.5e-09   6.7e-07   28.5   0.1     3    47   241   285   239   286 0.94 F-box/LRR-repeat protein 13 [Trichoplax sp. H2]
RDD40740.1           -            313 F-box                PF00646.34    48   7.4e-07   28.3   1.3   1   1   9.3e-09   2.5e-06   26.7   0.3     2    44     7    49     6    53 0.91 F-box/LRR-repeat protein 12 [Trichoplax sp. H2]
RDD42528.1           -            687 F-box                PF00646.34    48   9.8e-07   28.0   0.2   1   1   8.7e-09   2.3e-06   26.8   0.2     1    44    10    53    10    55 0.93 hypothetical protein TrispH2_005598 [Trichoplax sp. H2]
RDD39689.1           -            556 F-box                PF00646.34    48   1.2e-06   27.7   0.0   1   1   9.6e-09   2.5e-06   26.6   0.0     6    46     4    44     1    46 0.93 hypothetical protein TrispH2_007998 [Trichoplax sp. H2]
RDD43929.1           -            744 F-box                PF00646.34    48   1.5e-06   27.4   0.0   1   1   1.4e-08   3.7e-06   26.1   0.0     2    47    46    91    45    92 0.96 Serine/threonine-protein phosphatase 6 regulatory ankyrin repeat subunit A [Trichoplax sp. H2]
RDD43938.1           -           1047 F-box                PF00646.34    48   2.2e-06   26.8   0.4   1   1   2.4e-08   6.2e-06   25.4   0.4     4    38   324   358   322   364 0.92 F-box/WD repeat-containing protein 10 [Trichoplax sp. H2]
RDD42522.1           -            317 F-box                PF00646.34    48   2.5e-06   26.7   0.2   1   1   2.2e-08   5.8e-06   25.5   0.2     1    45    10    54    10    56 0.94 hypothetical protein TrispH2_005600 [Trichoplax sp. H2]
RDD47381.1           -            410 F-box                PF00646.34    48     4e-06   26.0   4.4   1   1   3.4e-08   8.9e-06   24.9   2.7     3    46    12    56    10    58 0.92 F-box/LRR-repeat protein 7 [Trichoplax sp. H2]
RDD39079.1           -            198 F-box                PF00646.34    48   5.2e-06   25.6   0.2   1   1   4.7e-08   1.2e-05   24.4   0.2     3    45    96   138    94   141 0.94 F-box only protein 36 [Trichoplax sp. H2]
RDD41825.1           -            599 F-box                PF00646.34    48   1.4e-05   24.3   1.8   1   1   5.2e-08   1.4e-05   24.3   1.8     2    38   485   521   484   527 0.94 F-box only protein 40 [Trichoplax sp. H2]
RDD47103.1           -            482 F-box                PF00646.34    48   4.3e-05   22.7   0.1   1   1   3.6e-07   9.6e-05   21.6   0.1     6    47    58    99    56   100 0.95 F-box/WD repeat-containing protein 7 [Trichoplax sp. H2]
RDD38837.1           -            555 F-box                PF00646.34    48   4.5e-05   22.7   0.1   1   1   3.6e-07   9.5e-05   21.6   0.1     3    47   270   314   268   315 0.95 F-box/WD repeat-containing protein 7 [Trichoplax sp. H2]
RDD39561.1           -            393 F-box                PF00646.34    48   0.00019   20.7   5.0   1   1   7.2e-07   0.00019   20.7   5.0     3    48     9    54     7    54 0.95 F-box only protein 31-B [Trichoplax sp. H2]
RDD43662.1           -            380 F-box                PF00646.34    48   0.00025   20.3   0.4   1   1     2e-06   0.00053   19.2   0.4     5    44     3    43     1    46 0.89 F-box/WD repeat-containing protein 9 [Trichoplax sp. H2]
RDD41405.1           -            700 F-box                PF00646.34    48   0.00026   20.2   1.0   1   1   2.2e-06   0.00058   19.1   0.1     3    47    22    66    20    67 0.95 hypothetical protein TrispH2_007060 [Trichoplax sp. H2]
RDD37718.1           -            280 F-box                PF00646.34    48   0.00041   19.6   0.9   1   1   1.5e-06   0.00041   19.6   0.9     4    37     6    41     3    44 0.85 F-box/LRR-repeat protein 15 [Trichoplax sp. H2]
RDD41380.1           -            736 F-box                PF00646.34    48   0.00045   19.5   0.0   1   1   5.3e-06    0.0014   17.9   0.0     1    46    18    63    18    65 0.94 hypothetical protein TrispH2_007059 [Trichoplax sp. H2]
RDD42529.1           -            708 F-box                PF00646.34    48   0.00054   19.2   0.0   1   1   9.2e-06    0.0024   17.1   0.0     1    37    10    46    10    56 0.92 hypothetical protein TrispH2_005599 [Trichoplax sp. H2]
RDD46504.1           -            586 F-box                PF00646.34    48   0.00061   19.0   0.8   1   2   2.3e-06   0.00061   19.0   0.8    16    45    23    52     6    55 0.84 F-box only protein 21 [Trichoplax sp. H2]
RDD46504.1           -            586 F-box                PF00646.34    48   0.00061   19.0   0.8   2   2       5.8   1.5e+03   -1.4   0.0    13    25   355   367   353   369 0.79 F-box only protein 21 [Trichoplax sp. H2]
RDD42662.1           -            657 F-box                PF00646.34    48   0.00063   19.0   0.0   1   1   5.1e-06    0.0013   17.9   0.0     3    45    12    54    10    57 0.91 Ankyrin-2 [Trichoplax sp. H2]
RDD38763.1           -            449 F-box                PF00646.34    48   0.00072   18.8   0.1   1   1   9.8e-06    0.0026   17.0   0.1     3    44    13    54    11    57 0.95 hypothetical protein TrispH2_008580 [Trichoplax sp. H2]
RDD46506.1           -            591 F-box                PF00646.34    48    0.0014   17.9   1.2   1   1   1.7e-05    0.0045   16.3   1.2     2    46    11    57    10    59 0.92 F-box only protein 21 [Trichoplax sp. H2]
RDD44733.1           -            335 F-box                PF00646.34    48    0.0016   17.7   0.1   1   1   1.6e-05    0.0043   16.3   0.1    12    41   143   172   120   179 0.88 F-box only protein 43 [Trichoplax sp. H2]
RDD46688.1           -            642 F-box                PF00646.34    48    0.0021   17.3   1.7   1   2     8e-06    0.0021   17.3   1.7     5    44     4    43     2    45 0.91 F-box/LRR-repeat protein 18 [Trichoplax sp. H2]
RDD46688.1           -            642 F-box                PF00646.34    48    0.0021   17.3   1.7   2   2       6.5   1.7e+03   -1.5   0.1    14    22   113   121   104   142 0.55 F-box/LRR-repeat protein 18 [Trichoplax sp. H2]
RDD42525.1           -            686 F-box                PF00646.34    48    0.0068   15.7   0.1   1   1   0.00011     0.028   13.7   0.1     1    35    10    44    10    55 0.87 hypothetical protein TrispH2_005603 [Trichoplax sp. H2]
RDD42124.1           -            325 F-box                PF00646.34    48     0.009   15.3   3.4   1   1     9e-05     0.024   14.0   3.4    19    47    99   127    96   128 0.91 F-box only protein 16 [Trichoplax sp. H2]
RDD42524.1           -            724 F-box                PF00646.34    48     0.011   15.0   0.0   1   1   0.00019      0.05   12.9   0.0     1    42    11    52    11    57 0.90 hypothetical protein TrispH2_005602 [Trichoplax sp. H2]
RDD46158.1           -            312 F-box                PF00646.34    48     0.019   14.3   0.4   1   1   0.00024     0.065   12.6   0.1     5    47   186   229   183   230 0.89 F-box only protein 25 [Trichoplax sp. H2]
RDD40808.1           -            482 F-box                PF00646.34    48     0.028   13.8   0.1   1   1    0.0001     0.028   13.8   0.1     3    28    55    80    54    85 0.90 F-box only protein 47 [Trichoplax sp. H2]
RDD46505.1           -            539 F-box                PF00646.34    48     0.037   13.4   1.4   1   1    0.0005      0.13   11.6   1.4     6    44    18    58    14    60 0.87 F-box only protein 21 [Trichoplax sp. H2]
#
# Program:         hmmsearch
# Version:         3.3 (Nov 2019)
# Pipeline mode:   SEARCH
# Query file:      01_HMMs/02_F-box.hmm
# Target file:     02_Proteoms/19_TSPH_proteom.fa
# Option settings: hmmsearch --domtblout 03_Results_Hmmer/2_19.txt 01_HMMs/02_F-box.hmm 02_Proteoms/19_TSPH_proteom.fa 
# Current dir:     /home/paul/Documents
# Date:            Sun Jun 28 15:25:27 2020
# [ok]
