#	accession	name	accession	to	from
#-------------------	--------------------	---------	------	----	---------------------
RDD40783.1	MBD	2e-18	65.3	0.93	Bromodomain
RDD37681.1	MBD	0.021	14.0	0.84	Histone-lysine
RDD43442.1	MBD	0.064	12.4	0.83	Peptidyl-prolyl
