#	accession	name	accession	to	from
#-------------------	--------------------	---------	------	----	---------------------
m.56878	SWIRM	4e-29	101.5	0.98	g.56878
m.310890	SWIRM	3.3e-15	56.9	0.91	g.310890
m.164777	SWIRM	3e-05	24.9	0.90	g.164777
