#	accession	name	accession	to	from
#-------------------	--------------------	---------	------	----	---------------------
XP_014156108.1	HARE-HTH	5.3e-11	42.8	0.94	hypothetical
XP_014147299.1	HARE-HTH	0.0008	19.8	0.92	hypothetical
#					
