#	accession	name	accession	to	from
#-------------------	--------------------	---------	------	----	---------------------
m.62023	HARE-HTH	2.8e-13	50.7	0.92	g.62023
m.47937	HARE-HTH	0.0029	18.6	0.75	g.47937
m.47937	HARE-HTH	0.0029	18.6	0.92	g.47937
