XP_011394703.1       -            711 ASXH                 PF13919.7    139   1.4e-37  128.2   1.0   1   1   1.2e-40   2.7e-37  127.2   1.0     3   138   484   611   482   612 0.97 uncharacterized protein NCU06707 [Neurospora crassa OR74A]
XP_011394704.1       -            711 ASXH                 PF13919.7    139   1.4e-37  128.2   1.0   1   1   1.2e-40   2.7e-37  127.2   1.0     3   138   484   611   482   612 0.97 hypothetical protein NCU06707 [Neurospora crassa OR74A]
XP_011394705.1       -            711 ASXH                 PF13919.7    139   1.4e-37  128.2   1.0   1   1   1.2e-40   2.7e-37  127.2   1.0     3   138   484   611   482   612 0.97 uncharacterized protein NCU06707 [Neurospora crassa OR74A]
XP_011394706.1       -            711 ASXH                 PF13919.7    139   1.4e-37  128.2   1.0   1   1   1.2e-40   2.7e-37  127.2   1.0     3   138   484   611   482   612 0.97 uncharacterized protein NCU06707 [Neurospora crassa OR74A]
XP_964514.2          -            550 ASXH                 PF13919.7    139     0.084   12.2   0.2   1   1     9e-05      0.19   11.0   0.2    53   121    77   140    73   150 0.75 hypothetical protein NCU02155 [Neurospora crassa OR74A]
XP_961678.1          -            696 Amino_oxidase        PF01593.25   452   7.9e-85  285.1   0.0   1   1   2.9e-87   9.5e-85  284.8   0.0     1   451   186   672   186   673 0.96 l-amino acid oxidase [Neurospora crassa OR74A]
XP_958892.1          -           1374 Amino_oxidase        PF01593.25   452   4.7e-82  275.9   0.0   1   1   1.9e-83   6.1e-81  272.3   0.0     1   452   568  1138   568  1138 0.81 lysine-specific histone demethylase Aof2 [Neurospora crassa OR74A]
XP_960607.2          -            607 Amino_oxidase        PF01593.25   452   2.4e-49  168.2   0.0   1   2   2.2e-42   7.3e-40  136.9   0.0     1   322    75   388    75   432 0.82 amine oxidase [Neurospora crassa OR74A]
XP_960607.2          -            607 Amino_oxidase        PF01593.25   452   2.4e-49  168.2   0.0   2   2   9.8e-10   3.2e-07   29.3   0.1   379   451   498   574   476   575 0.89 amine oxidase [Neurospora crassa OR74A]
XP_961718.1          -            649 Amino_oxidase        PF01593.25   452   1.4e-34  119.5   0.0   1   1   2.5e-36   8.3e-34  116.9   0.0     1   445    95   567    95   569 0.81 L-amino acid oxidase [Neurospora crassa OR74A]
XP_958783.2          -           1046 F-box                PF00646.34    48   2.7e-12   45.5   0.8   1   1   2.1e-14   5.1e-12   44.6   0.1     3    40   456   493   454   504 0.93 cell division control protein 4 [Neurospora crassa OR74A]
XP_011395060.1       -            305 F-box                PF00646.34    48   6.8e-10   37.9   0.4   1   2       6.2   1.5e+03   -1.5   0.0    32    47    75    90    75    91 0.82 hypothetical protein NCU12130 [Neurospora crassa OR74A]
XP_011395060.1       -            305 F-box                PF00646.34    48   6.8e-10   37.9   0.4   2   2   1.3e-11     3e-09   35.8   0.4     4    47   114   157   112   158 0.93 hypothetical protein NCU12130 [Neurospora crassa OR74A]
XP_011393222.1       -            976 F-box                PF00646.34    48   1.2e-08   33.9   4.6   1   2     5e-11   1.2e-08   33.9   4.6     4    45   507   548   506   550 0.93 cyclic nucleotide-binding domain-containing protein, variant [Neurospora crassa OR74A]
XP_011393222.1       -            976 F-box                PF00646.34    48   1.2e-08   33.9   4.6   2   2         8   1.9e+03   -1.8   0.2    15    29   785   799   782   801 0.86 cyclic nucleotide-binding domain-containing protein, variant [Neurospora crassa OR74A]
XP_960231.3          -           1188 PHD_4                PF16866.6     68   3.6e-11   42.3   7.2   1   1   6.7e-14   1.2e-10   40.6   7.2     6    67   229   283   226   284 0.94 mst2 [Neurospora crassa OR74A]
XP_963535.1          -            323 PHD_4                PF16866.6     68     0.013   14.9   5.4   1   2    0.0071        13    5.3   0.1    19    42    47    70    31    77 0.79 hypothetical protein NCU06763 [Neurospora crassa OR74A]
XP_963535.1          -            323 PHD_4                PF16866.6     68     0.013   14.9   5.4   2   2   0.00014      0.26   10.7   1.8    32    67   105   138    95   139 0.81 hypothetical protein NCU06763 [Neurospora crassa OR74A]
XP_962045.2          -            369 PHD_4                PF16866.6     68      0.23   10.9   8.2   1   1   8.9e-05      0.16   11.4   5.7    32    64   141   172   132   174 0.81 hypothetical protein NCU08834 [Neurospora crassa OR74A]
XP_961604.1          -           1736 PHD_4                PF16866.6     68       1.3    8.5  24.7   1   2     0.017        31    4.0  10.7    23    67   460   499   446   500 0.79 PHD transcription factor [Neurospora crassa OR74A]
XP_962673.1          -            690 SWIRM                PF04433.18    90   4.6e-31  106.3   0.1   1   1   3.6e-34   9.7e-31  105.3   0.1     1    90   134   219   134   219 0.98 RSC complex subunit [Neurospora crassa OR74A]
XP_958892.1          -           1374 SWIRM                PF04433.18    90   7.8e-15   54.3   0.1   1   2   9.5e-18   2.6e-14   52.6   0.0     5    90   456   535   452   535 0.93 lysine-specific histone demethylase Aof2 [Neurospora crassa OR74A]
XP_958892.1          -           1374 SWIRM                PF04433.18    90   7.8e-15   54.3   0.1   2   2         4   1.1e+04   -4.1   0.0    26    38   721   733   712   734 0.74 lysine-specific histone demethylase Aof2 [Neurospora crassa OR74A]
XP_965493.3          -            404 SWIRM                PF04433.18    90   1.3e-14   53.6   0.1   1   2      0.02        53    3.6   0.0    37    59   167   189   146   207 0.78 SWIRM domain-containing protein FUN19 [Neurospora crassa OR74A]
XP_965493.3          -            404 SWIRM                PF04433.18    90   1.3e-14   53.6   0.1   2   2   3.9e-16     1e-12   47.5   0.0    10    89   323   394   318   395 0.94 SWIRM domain-containing protein FUN19 [Neurospora crassa OR74A]
XP_011393519.1       -            413 SKG6                 PF08693.11    38   2.5e-08   32.5   6.8   1   1   5.9e-11   2.5e-08   32.5   6.8     9    38   162   191   158   191 0.92 uncharacterized protein NCU01846 [Neurospora crassa OR74A]
XP_011393521.1       -            431 SKG6                 PF08693.11    38   2.7e-08   32.4   6.8   1   1   6.2e-11   2.7e-08   32.4   6.8     9    38   180   209   176   209 0.92 uncharacterized protein NCU01846 [Neurospora crassa OR74A]
XP_011393520.1       -            434 SKG6                 PF08693.11    38   2.7e-08   32.4   6.8   1   1   6.3e-11   2.7e-08   32.4   6.8     9    38   183   212   179   212 0.92 hypothetical protein NCU01846 [Neurospora crassa OR74A]
XP_011395259.1       -            300 SKG6                 PF08693.11    38     4e-07   28.7   2.8   1   1   9.3e-10     4e-07   28.7   2.8     1    38   198   235   198   235 0.97 WSC-1, variant 2 [Neurospora crassa OR74A]
XP_011395260.1       -            300 SKG6                 PF08693.11    38     4e-07   28.7   2.8   1   1   9.3e-10     4e-07   28.7   2.8     1    38   198   235   198   235 0.97 WSC-1 [Neurospora crassa OR74A]
XP_964840.1          -           1445 zf-CW                PF07496.16    48      0.18   11.1   5.1   1   1   4.7e-05      0.51    9.7   5.1     5    42  1053  1085  1051  1090 0.78 hypothetical protein NCU08632 [Neurospora crassa OR74A]
#
# Program:         hmmsearch
# Version:         3.3 (Nov 2019)
# Pipeline mode:   SEARCH
