#                                                                            --- full sequence --- -------------- this domain -------------   hmm coord   ali coord   env coord
# target name        accession   tlen query name           accession   qlen   E-value  score  bias   #  of  c-Evalue  i-Evalue  score  bias  from    to  from    to  from    to  acc description of target
#------------------- ---------- ----- -------------------- ---------- ----- --------- ------ ----- --- --- --------- --------- ------ ----- ----- ----- ----- ----- ----- ----- ---- ---------------------
HMIM014253-PA        -            586 PHD_4                PF16866.6     68   0.00013   22.3   7.1   1   3   8.7e-08   0.00013   22.3   7.1     6    67   361   415   357   419 0.82 pep scaffold:HmiaM1:SCFE01000046.1:424859:428094:1 gene:HMIM014253 transcript:HMIM014253-RA gene_biotype:protein_coding transcript_biotype:protein_coding
HMIM014253-PA        -            586 PHD_4                PF16866.6     68   0.00013   22.3   7.1   2   3      0.49   7.4e+02    0.6   9.2    24    48   522   546   496   569 0.78 pep scaffold:HmiaM1:SCFE01000046.1:424859:428094:1 gene:HMIM014253 transcript:HMIM014253-RA gene_biotype:protein_coding transcript_biotype:protein_coding
HMIM014253-PA        -            586 PHD_4                PF16866.6     68   0.00013   22.3   7.1   3   3       2.6   3.9e+03   -1.7   0.1     4    16   562   574   558   583 0.73 pep scaffold:HmiaM1:SCFE01000046.1:424859:428094:1 gene:HMIM014253 transcript:HMIM014253-RA gene_biotype:protein_coding transcript_biotype:protein_coding
HMIM003267-PA        -            249 PHD_4                PF16866.6     68    0.0034   17.8  10.7   1   2   2.3e-06    0.0034   17.8  10.7     6    67   138   193   134   199 0.80 pep scaffold:HmiaM1:SCFE01001466.1:12101:25481:-1 gene:HMIM003267 transcript:HMIM003267-RA gene_biotype:protein_coding transcript_biotype:protein_coding
HMIM003267-PA        -            249 PHD_4                PF16866.6     68    0.0034   17.8  10.7   2   2       7.7   1.2e+04   -3.2   8.7    23    47   201   225   193   243 0.63 pep scaffold:HmiaM1:SCFE01001466.1:12101:25481:-1 gene:HMIM003267 transcript:HMIM003267-RA gene_biotype:protein_coding transcript_biotype:protein_coding
HMIM003512-PA        -            249 PHD_4                PF16866.6     68    0.0034   17.8  10.7   1   2   2.3e-06    0.0034   17.8  10.7     6    67   138   193   134   199 0.80 pep scaffold:HmiaM1:SCFE01000150.1:1004983:1018404:-1 gene:HMIM003512 transcript:HMIM003512-RA gene_biotype:protein_coding transcript_biotype:protein_coding
HMIM003512-PA        -            249 PHD_4                PF16866.6     68    0.0034   17.8  10.7   2   2       7.7   1.2e+04   -3.2   8.7    23    47   201   225   193   243 0.63 pep scaffold:HmiaM1:SCFE01000150.1:1004983:1018404:-1 gene:HMIM003512 transcript:HMIM003512-RA gene_biotype:protein_coding transcript_biotype:protein_coding
HMIM004793-PA        -           2179 PHD_4                PF16866.6     68    0.0034   17.7   6.8   1   6       7.1   1.1e+04   -3.1   1.7    30    44   824   839   810   849 0.59 pep scaffold:HmiaM1:SCFE01000179.1:464790:489745:1 gene:HMIM004793 transcript:HMIM004793-RA gene_biotype:protein_coding transcript_biotype:protein_coding
HMIM004793-PA        -           2179 PHD_4                PF16866.6     68    0.0034   17.7   6.8   2   6     0.047        70    3.9   9.1     1    67  1095  1146  1095  1152 0.78 pep scaffold:HmiaM1:SCFE01000179.1:464790:489745:1 gene:HMIM004793 transcript:HMIM004793-RA gene_biotype:protein_coding transcript_biotype:protein_coding
HMIM004793-PA        -           2179 PHD_4                PF16866.6     68    0.0034   17.7   6.8   3   6   2.3e-06    0.0034   17.7   6.8    28    67  1156  1192  1149  1193 0.85 pep scaffold:HmiaM1:SCFE01000179.1:464790:489745:1 gene:HMIM004793 transcript:HMIM004793-RA gene_biotype:protein_coding transcript_biotype:protein_coding
HMIM004793-PA        -           2179 PHD_4                PF16866.6     68    0.0034   17.7   6.8   4   6      0.24   3.6e+02    1.7   4.9     6    52  1232  1275  1227  1295 0.74 pep scaffold:HmiaM1:SCFE01000179.1:464790:489745:1 gene:HMIM004793 transcript:HMIM004793-RA gene_biotype:protein_coding transcript_biotype:protein_coding
HMIM004793-PA        -           2179 PHD_4                PF16866.6     68    0.0034   17.7   6.8   5   6       2.7     4e+03   -1.7   0.1     6    18  1477  1489  1474  1503 0.82 pep scaffold:HmiaM1:SCFE01000179.1:464790:489745:1 gene:HMIM004793 transcript:HMIM004793-RA gene_biotype:protein_coding transcript_biotype:protein_coding
HMIM004793-PA        -           2179 PHD_4                PF16866.6     68    0.0034   17.7   6.8   6   6       1.1   1.7e+03   -0.5   0.0    40    68  1807  1837  1792  1837 0.66 pep scaffold:HmiaM1:SCFE01000179.1:464790:489745:1 gene:HMIM004793 transcript:HMIM004793-RA gene_biotype:protein_coding transcript_biotype:protein_coding
HMIM012408-PA        -            342 PHD_4                PF16866.6     68     0.011   16.1   9.7   1   1   3.8e-05     0.058   13.8   9.7    26    67   127   167   102   168 0.87 pep scaffold:HmiaM1:SCFE01000039.1:1452711:1460949:1 gene:HMIM012408 transcript:HMIM012408-RA gene_biotype:protein_coding transcript_biotype:protein_coding
HMIM007686-PA        -           1381 PHD_4                PF16866.6     68     0.011   16.1   6.1   1   4   7.7e-06     0.011   16.1   6.1    25    68   296   334   271   334 0.79 pep scaffold:HmiaM1:SCFE01000248.1:236344:244807:1 gene:HMIM007686 transcript:HMIM007686-RA gene_biotype:protein_coding transcript_biotype:protein_coding
HMIM007686-PA        -           1381 PHD_4                PF16866.6     68     0.011   16.1   6.1   2   4       9.2   1.4e+04   -3.4   0.1    24    37   660   673   649   676 0.74 pep scaffold:HmiaM1:SCFE01000248.1:236344:244807:1 gene:HMIM007686 transcript:HMIM007686-RA gene_biotype:protein_coding transcript_biotype:protein_coding
HMIM007686-PA        -           1381 PHD_4                PF16866.6     68     0.011   16.1   6.1   3   4       4.6   6.9e+03   -2.5   1.4     7    40  1096  1122  1086  1144 0.65 pep scaffold:HmiaM1:SCFE01000248.1:236344:244807:1 gene:HMIM007686 transcript:HMIM007686-RA gene_biotype:protein_coding transcript_biotype:protein_coding
HMIM007686-PA        -           1381 PHD_4                PF16866.6     68     0.011   16.1   6.1   4   4       1.3     2e+03   -0.7   5.2    31    67  1299  1330  1291  1331 0.74 pep scaffold:HmiaM1:SCFE01000248.1:236344:244807:1 gene:HMIM007686 transcript:HMIM007686-RA gene_biotype:protein_coding transcript_biotype:protein_coding
HMIM001407-PA        -             99 PHD_4                PF16866.6     68      0.22   11.9   3.4   1   2   0.00047      0.71   10.3   3.4    30    67    29    67    10    68 0.82 pep scaffold:HmiaM1:SCFE01000114.1:501820:502119:-1 gene:HMIM001407 transcript:HMIM001407-RA gene_biotype:protein_coding transcript_biotype:protein_coding
HMIM001407-PA        -             99 PHD_4                PF16866.6     68      0.22   11.9   3.4   2   2    0.0004       0.6   10.6   1.9    32    67    31    67    30    86 0.87 pep scaffold:HmiaM1:SCFE01000114.1:501820:502119:-1 gene:HMIM001407 transcript:HMIM001407-RA gene_biotype:protein_coding transcript_biotype:protein_coding
HMIM015462-PA        -             76 PHD_4                PF16866.6     68       0.4   11.1   9.1   1   2   0.00014      0.21   12.0   3.7     2    47     8    49     7    56 0.85 pep scaffold:HmiaM1:SCFE01000507.1:247618:249799:-1 gene:HMIM015462 transcript:HMIM015462-RA gene_biotype:protein_coding transcript_biotype:protein_coding
HMIM015462-PA        -             76 PHD_4                PF16866.6     68       0.4   11.1   9.1   2   2      0.11   1.7e+02    2.7   0.2     1    13    51    63    51    75 0.79 pep scaffold:HmiaM1:SCFE01000507.1:247618:249799:-1 gene:HMIM015462 transcript:HMIM015462-RA gene_biotype:protein_coding transcript_biotype:protein_coding
HMIM018581-PA        -            147 PHD_4                PF16866.6     68      0.76   10.2   9.6   1   1    0.0013       1.9    8.9   9.6    27    67    28    69    13    70 0.83 pep scaffold:HmiaM1:SCFE01000067.1:1226425:1226868:-1 gene:HMIM018581 transcript:HMIM018581-RA gene_biotype:protein_coding transcript_biotype:protein_coding
HMIM008611-PA        -            186 PHD_4                PF16866.6     68      0.77   10.2  14.9   1   2   0.00041      0.61   10.5  12.2    22    67    21    67     5    68 0.82 pep scaffold:HmiaM1:SCFE01000270.1:77210:77770:-1 gene:HMIM008611 transcript:HMIM008611-RA gene_biotype:protein_coding transcript_biotype:protein_coding
HMIM008611-PA        -            186 PHD_4                PF16866.6     68      0.77   10.2  14.9   2   2         5   7.5e+03   -2.6   0.0    22    34   138   150   123   154 0.64 pep scaffold:HmiaM1:SCFE01000270.1:77210:77770:-1 gene:HMIM008611 transcript:HMIM008611-RA gene_biotype:protein_coding transcript_biotype:protein_coding
HMIM013376-PA        -            358 PHD_4                PF16866.6     68         1    9.8  14.9   1   3     0.026        40    4.7   0.3    25    43   102   120    83   130 0.79 pep scaffold:HmiaM1:SCFE01000421.1:382525:390046:-1 gene:HMIM013376 transcript:HMIM013376-RA gene_biotype:protein_coding transcript_biotype:protein_coding
HMIM013376-PA        -            358 PHD_4                PF16866.6     68         1    9.8  14.9   2   3      0.06        90    3.6   0.3    24    40   153   169   128   177 0.80 pep scaffold:HmiaM1:SCFE01000421.1:382525:390046:-1 gene:HMIM013376 transcript:HMIM013376-RA gene_biotype:protein_coding transcript_biotype:protein_coding
HMIM013376-PA        -            358 PHD_4                PF16866.6     68         1    9.8  14.9   3   3   0.00081       1.2    9.6   1.5     8    39   177   208   171   212 0.89 pep scaffold:HmiaM1:SCFE01000421.1:382525:390046:-1 gene:HMIM013376 transcript:HMIM013376-RA gene_biotype:protein_coding transcript_biotype:protein_coding
HMIM019617-PA        -            328 PHD_4                PF16866.6     68       4.3    7.8  12.8   1   1    0.0086        13    6.3  12.3     9    67    39    89    15    90 0.77 pep scaffold:HmiaM1:SCFE01000074.1:1038877:1039863:1 gene:HMIM019617 transcript:HMIM019617-RA gene_biotype:protein_coding transcript_biotype:protein_coding
HMIM006356-PA        -            579 PHD_4                PF16866.6     68       5.2    7.5   7.6   1   2     0.024        36    4.9   5.9    22    65    91   136    63   137 0.74 pep scaffold:HmiaM1:SCFE01000210.1:136520:180000:1 gene:HMIM006356 transcript:HMIM006356-RA gene_biotype:protein_coding transcript_biotype:protein_coding
HMIM006356-PA        -            579 PHD_4                PF16866.6     68       5.2    7.5   7.6   2   2     0.066        98    3.5   0.3    30    48   129   147   122   160 0.82 pep scaffold:HmiaM1:SCFE01000210.1:136520:180000:1 gene:HMIM006356 transcript:HMIM006356-RA gene_biotype:protein_coding transcript_biotype:protein_coding
HMIM015243-PA        -            404 PHD_4                PF16866.6     68       5.5    7.5   6.9   1   3      0.13   1.9e+02    2.5   0.1    19    43   281   305   271   319 0.77 pep scaffold:HmiaM1:SCFE01000005.1:2361415:2386929:1 gene:HMIM015243 transcript:HMIM015243-RA gene_biotype:protein_coding transcript_biotype:protein_coding
HMIM015243-PA        -            404 PHD_4                PF16866.6     68       5.5    7.5   6.9   2   3     0.043        64    4.1   0.9     7    38   323   356   318   360 0.75 pep scaffold:HmiaM1:SCFE01000005.1:2361415:2386929:1 gene:HMIM015243 transcript:HMIM015243-RA gene_biotype:protein_coding transcript_biotype:protein_coding
HMIM015243-PA        -            404 PHD_4                PF16866.6     68       5.5    7.5   6.9   3   3    0.0073        11    6.5   0.8     6    38   350   384   345   398 0.82 pep scaffold:HmiaM1:SCFE01000005.1:2361415:2386929:1 gene:HMIM015243 transcript:HMIM015243-RA gene_biotype:protein_coding transcript_biotype:protein_coding
HMIM009730-PA        -            730 PHD_4                PF16866.6     68         9    6.8  12.1   1   2     0.016        24    5.4   3.9    28    47   202   221   183   235 0.82 pep scaffold:HmiaM1:SCFE01000030.1:1357890:1382420:1 gene:HMIM009730 transcript:HMIM009730-RA gene_biotype:protein_coding transcript_biotype:protein_coding
HMIM009730-PA        -            730 PHD_4                PF16866.6     68         9    6.8  12.1   2   2     0.019        28    5.2   1.2    31    51   278   298   273   308 0.77 pep scaffold:HmiaM1:SCFE01000030.1:1357890:1382420:1 gene:HMIM009730 transcript:HMIM009730-RA gene_biotype:protein_coding transcript_biotype:protein_coding
#
# Program:         hmmsearch
# Version:         3.3 (Nov 2019)
# Pipeline mode:   SEARCH
# Query file:      01_HMMs/07_PHD_4.hmm
# Target file:     02_Proteoms/02_HMIA_proteom.fa
# Option settings: hmmsearch --domtblout 03_Results_Hmmer/7_2.txt 01_HMMs/07_PHD_4.hmm 02_Proteoms/02_HMIA_proteom.fa 
# Current dir:     /home/paul/Documents
# Date:            Fri Jun 26 13:13:35 2020
# [ok]
