#                                                                            --- full sequence --- -------------- this domain -------------   hmm coord   ali coord   env coord
# target name        accession   tlen query name           accession   qlen   E-value  score  bias   #  of  c-Evalue  i-Evalue  score  bias  from    to  from    to  from    to  acc description of target
#------------------- ---------- ----- -------------------- ---------- ----- --------- ------ ----- --- --- --------- --------- ------ ----- ----- ----- ----- ----- ----- ----- ---- ---------------------
XP_029183423.1       -            604 F-box                PF00646.34    48   1.8e-11   44.6   0.4   1   2   5.7e-13   1.6e-10   41.5   0.0     3    45   265   307   263   309 0.94 F-box/LRR-repeat protein 5-like [Acropora millepora]
XP_029183423.1       -            604 F-box                PF00646.34    48   1.8e-11   44.6   0.4   2   2       6.6   1.9e+03   -0.2   0.1     6    28   407   429   403   430 0.77 F-box/LRR-repeat protein 5-like [Acropora millepora]
XP_029195292.1       -           1225 F-box                PF00646.34    48   2.9e-11   43.9   0.2   1   1   2.7e-13   7.6e-11   42.5   0.2     3    45   567   610   565   612 0.94 F-box DNA helicase 1-like isoform X2 [Acropora millepora]
XP_029195291.1       -           1366 F-box                PF00646.34    48   3.1e-11   43.8   0.2   1   1   3.1e-13   8.6e-11   42.4   0.2     3    45   567   610   565   612 0.94 F-box DNA helicase 1-like isoform X1 [Acropora millepora]
XP_029196914.1       -            396 F-box                PF00646.34    48   3.6e-11   43.6   4.0   1   1   5.1e-13   1.4e-10   41.6   4.0     2    44    13    55    12    59 0.95 F-box/WD repeat-containing protein 4-like [Acropora millepora]
XP_029198966.1       -            694 F-box                PF00646.34    48   2.4e-10   40.9   4.4   1   1   2.1e-12   5.8e-10   39.7   4.4     4    47     6    49     4    50 0.95 F-box only protein 10-like [Acropora millepora]
XP_029194630.1       -            459 F-box                PF00646.34    48   4.6e-10   40.1   3.1   1   1   1.6e-12   4.6e-10   40.1   3.1     1    47     8    54     8    55 0.96 F-box/LRR-repeat protein 20-like [Acropora millepora]
XP_029208058.1       -            371 F-box                PF00646.34    48   4.7e-10   40.0   0.9   1   2   1.7e-12   4.7e-10   40.0   0.9     3    45   126   168   125   171 0.95 S-phase kinase-associated protein 2-like [Acropora millepora]
XP_029208058.1       -            371 F-box                PF00646.34    48   4.7e-10   40.0   0.9   2   2       8.2   2.3e+03   -0.5   0.0    10    28   320   338   311   339 0.79 S-phase kinase-associated protein 2-like [Acropora millepora]
XP_029191184.1       -            933 F-box                PF00646.34    48   5.1e-10   39.9   2.4   1   1   8.3e-12   2.3e-09   37.8   2.4     3    47   353   397   351   398 0.95 uncharacterized protein LOC114957815 isoform X1 [Acropora millepora]
XP_029191185.1       -            931 F-box                PF00646.34    48   5.2e-10   39.9   2.4   1   1   8.3e-12   2.3e-09   37.8   2.4     3    47   353   397   351   398 0.95 uncharacterized protein LOC114957815 isoform X2 [Acropora millepora]
XP_029211774.1       -            674 F-box                PF00646.34    48   4.3e-09   36.9   1.1   1   1   3.8e-11   1.1e-08   35.7   1.1     3    47   238   282   236   283 0.95 F-box/WD repeat-containing protein 7-like [Acropora millepora]
XP_029202355.1       -            164 F-box                PF00646.34    48   4.5e-09   36.9   2.5   1   2       7.2     2e+03   -0.3   0.1    31    40     8    17     8    24 0.82 F-box only protein 36-like isoform X2 [Acropora millepora]
XP_029202355.1       -            164 F-box                PF00646.34    48   4.5e-09   36.9   2.5   2   2   1.6e-11   4.5e-09   36.9   2.5     8    46    70   108    18   110 0.78 F-box only protein 36-like isoform X2 [Acropora millepora]
XP_029207481.1       -            664 F-box                PF00646.34    48   4.9e-09   36.8   4.4   1   1   1.7e-11   4.9e-09   36.8   4.4     2    47   286   331   285   332 0.95 F-box/LRR-repeat protein 7-like isoform X2 [Acropora millepora]
XP_029207488.1       -            664 F-box                PF00646.34    48   4.9e-09   36.8   4.4   1   1   1.7e-11   4.9e-09   36.8   4.4     2    47   286   331   285   332 0.95 F-box/LRR-repeat protein 7-like isoform X2 [Acropora millepora]
XP_029207496.1       -            664 F-box                PF00646.34    48   4.9e-09   36.8   4.4   1   1   1.7e-11   4.9e-09   36.8   4.4     2    47   286   331   285   332 0.95 F-box/LRR-repeat protein 7-like isoform X2 [Acropora millepora]
XP_029193338.1       -            467 F-box                PF00646.34    48   5.7e-09   36.6   4.2   1   1   4.6e-11   1.3e-08   35.4   4.2     5    46     3    44     1    46 0.95 F-box/WD repeat-containing protein 7-like [Acropora millepora]
XP_029207473.1       -            760 F-box                PF00646.34    48   5.8e-09   36.5   4.4   1   1     2e-11   5.8e-09   36.5   4.4     2    47   382   427   381   428 0.95 uncharacterized protein LOC114971098 isoform X1 [Acropora millepora]
XP_029194278.1       -            725 F-box                PF00646.34    48     7e-09   36.3   0.7   1   1   7.7e-11   2.2e-08   34.7   0.1     5    43   231   269   230   272 0.93 F-box/WD repeat-containing protein 8-like [Acropora millepora]
XP_029202354.1       -            203 F-box                PF00646.34    48   1.1e-08   35.7   3.0   1   2       9.4   2.7e+03   -0.7   0.1    31    40    47    56    47    63 0.82 F-box only protein 36-like isoform X1 [Acropora millepora]
XP_029202354.1       -            203 F-box                PF00646.34    48   1.1e-08   35.7   3.0   2   2   3.9e-11   1.1e-08   35.7   3.0     8    45   109   146    57   149 0.79 F-box only protein 36-like isoform X1 [Acropora millepora]
XP_029214391.1       -            267 F-box                PF00646.34    48   1.2e-08   35.6   0.5   1   1   1.6e-10   4.6e-08   33.7   0.2     7    45    10    48     8    50 0.93 uncharacterized protein LOC114977730 [Acropora millepora]
XP_029214392.1       -            267 F-box                PF00646.34    48   1.2e-08   35.6   0.5   1   1   1.6e-10   4.6e-08   33.7   0.2     7    45    10    48     8    50 0.93 uncharacterized protein LOC114977730 [Acropora millepora]
XP_029190316.1       -            379 F-box                PF00646.34    48   1.5e-08   35.2   0.3   1   1   5.4e-11   1.5e-08   35.2   0.3     5    36     5    36     1    41 0.95 F-box/WD repeat-containing protein 7-like isoform X2 [Acropora millepora]
XP_029190315.1       -            425 F-box                PF00646.34    48   1.8e-08   35.0   0.3   1   1   6.3e-11   1.8e-08   35.0   0.3     5    36     5    36     1    41 0.95 F-box/WD repeat-containing protein 7-like isoform X1 [Acropora millepora]
XP_029204380.1       -            335 F-box                PF00646.34    48   1.9e-08   34.9   3.4   1   1   3.3e-10   9.3e-08   32.7   3.4     2    45    25    68    24    71 0.94 F-box/LRR-repeat protein 12-like [Acropora millepora]
XP_029183352.1       -            432 F-box                PF00646.34    48   2.2e-08   34.7   0.2   1   1   1.7e-10   4.9e-08   33.6   0.2     2    42   298   342   297   347 0.91 uncharacterized protein LOC114951314 [Acropora millepora]
XP_029189617.1       -            474 F-box                PF00646.34    48   2.5e-08   34.5   1.6   1   2   8.7e-11   2.5e-08   34.5   1.6     2    45    22    65    21    68 0.96 F-box/LRR-repeat protein 4-like [Acropora millepora]
XP_029189617.1       -            474 F-box                PF00646.34    48   2.5e-08   34.5   1.6   2   2       1.6   4.5e+02    1.8   0.1    22    34   272   286   262   288 0.80 F-box/LRR-repeat protein 4-like [Acropora millepora]
XP_029214389.1       -            239 F-box                PF00646.34    48   2.8e-08   34.4   0.8   1   1   3.4e-10   9.7e-08   32.6   0.4     6    45     9    48     5    50 0.92 uncharacterized protein LOC114977729 isoform X2 [Acropora millepora]
XP_029214388.1       -            267 F-box                PF00646.34    48     4e-08   33.9   1.1   1   1   4.1e-10   1.2e-07   32.4   0.4     6    45     9    48     5    50 0.92 uncharacterized protein LOC114977729 isoform X1 [Acropora millepora]
XP_029184509.1       -            882 F-box                PF00646.34    48   6.8e-08   33.1   4.1   1   1   2.8e-10   7.9e-08   32.9   2.2     9    45   612   658   588   661 0.83 lysine-specific demethylase 2B-like isoform X4 [Acropora millepora]
XP_029184508.1       -            893 F-box                PF00646.34    48     7e-08   33.1   4.1   1   1   2.8e-10     8e-08   32.9   2.2     9    45   623   669   599   672 0.83 lysine-specific demethylase 2B-like isoform X3 [Acropora millepora]
XP_029184507.1       -            918 F-box                PF00646.34    48   7.2e-08   33.0   4.1   1   1   2.9e-10   8.3e-08   32.9   2.2     9    45   648   694   624   697 0.83 lysine-specific demethylase 2B-like isoform X2 [Acropora millepora]
XP_029212767.1       -            776 F-box                PF00646.34    48   7.8e-08   32.9   2.3   1   1   8.2e-10   2.3e-07   31.4   0.3     2    45   230   273   229   276 0.94 dynein regulatory complex subunit 6-like isoform X1 [Acropora millepora]
XP_029212768.1       -            776 F-box                PF00646.34    48   7.8e-08   32.9   2.3   1   1   8.2e-10   2.3e-07   31.4   0.3     2    45   230   273   229   276 0.94 dynein regulatory complex subunit 6-like isoform X2 [Acropora millepora]
XP_029185439.1       -            204 F-box                PF00646.34    48   8.6e-08   32.8   1.9   1   1     3e-10   8.6e-08   32.8   1.9     2    47    89   134    85   135 0.95 F-box only protein 36-like [Acropora millepora]
XP_029184506.1       -           1077 F-box                PF00646.34    48     1e-07   32.6   2.2   1   1   3.5e-10     1e-07   32.6   2.2     9    45   807   853   783   856 0.83 lysine-specific demethylase 2B-like isoform X1 [Acropora millepora]
XP_029197050.1       -           1038 F-box                PF00646.34    48   1.3e-07   32.2   1.1   1   1   1.2e-09   3.5e-07   30.9   1.1     6    47   649   690   646   691 0.94 cell division control protein 4-like [Acropora millepora]
XP_029207945.1       -            450 F-box                PF00646.34    48   1.4e-07   32.2   0.7   1   1   2.3e-09   6.6e-07   30.0   0.7     6    43    42    79    40    84 0.88 F-box/LRR-repeat protein 20-like [Acropora millepora]
XP_029193639.1       -            712 F-box                PF00646.34    48   1.4e-07   32.1   0.5   1   1     2e-09   5.5e-07   30.2   0.5     1    36   205   240   205   251 0.90 F-box/LRR-repeat protein 20-like isoform X5 [Acropora millepora]
XP_029193611.1       -            727 F-box                PF00646.34    48   1.5e-07   32.0   0.5   1   1     2e-09   5.7e-07   30.2   0.5     1    36   205   240   205   251 0.90 putative RNA-binding protein EEED8.10 isoform X2 [Acropora millepora]
XP_029193630.1       -            715 F-box                PF00646.34    48   1.5e-07   32.0   0.5   1   1     2e-09   5.6e-07   30.2   0.5     1    36   205   240   205   251 0.90 putative RNA-binding protein EEED8.10 isoform X4 [Acropora millepora]
XP_029189109.1       -            698 F-box                PF00646.34    48   1.5e-07   32.0   1.2   1   1   1.3e-09   3.5e-07   30.8   1.2     4    47   329   372   326   373 0.93 F-box/WD repeat-containing protein 7-like [Acropora millepora]
XP_029193619.1       -            723 F-box                PF00646.34    48   1.6e-07   32.0   0.5   1   1     2e-09   5.6e-07   30.2   0.5     1    36   198   233   198   244 0.90 putative RNA-binding protein EEED8.10 isoform X3 [Acropora millepora]
XP_029193600.1       -            730 F-box                PF00646.34    48   1.6e-07   31.9   0.5   1   1     2e-09   5.7e-07   30.2   0.5     1    36   205   240   205   251 0.90 putative RNA-binding protein EEED8.10 isoform X1 [Acropora millepora]
XP_029208129.1       -            405 F-box                PF00646.34    48   2.3e-07   31.4   0.2   1   2   8.3e-10   2.3e-07   31.4   0.2     3    44    32    73    30    76 0.94 F-box/LRR-repeat protein 17-like [Acropora millepora]
XP_029208129.1       -            405 F-box                PF00646.34    48   2.3e-07   31.4   0.2   2   2       4.7   1.3e+03    0.3   0.1    14    31   245   262   243   276 0.84 F-box/LRR-repeat protein 17-like [Acropora millepora]
XP_029204121.1       -            383 F-box                PF00646.34    48   2.7e-07   31.2  10.3   1   2     0.048        14    6.6   0.2    25    44    43    62    16    63 0.89 F-box/WD repeat-containing protein 2-like isoform X2 [Acropora millepora]
XP_029204121.1       -            383 F-box                PF00646.34    48   2.7e-07   31.2  10.3   2   2   2.8e-08     8e-06   26.5   7.3     5    41    62    98    60   103 0.92 F-box/WD repeat-containing protein 2-like isoform X2 [Acropora millepora]
XP_029199134.1       -            473 F-box                PF00646.34    48   2.8e-07   31.2   0.1   1   1   9.9e-10   2.8e-07   31.2   0.1     6    44    45    83    43    86 0.95 F-box only protein 15-like isoform X2 [Acropora millepora]
XP_029199133.1       -            488 F-box                PF00646.34    48   2.9e-07   31.1   0.1   1   1     1e-09   2.9e-07   31.1   0.1     6    44    60    98    58   101 0.95 F-box only protein 15-like isoform X1 [Acropora millepora]
XP_029187963.1       -            300 F-box                PF00646.34    48   3.3e-07   30.9   0.9   1   1   1.2e-09   3.3e-07   30.9   0.9     6    45     5    44     4    46 0.95 F-box/LRR-repeat protein 20-like isoform X3 [Acropora millepora]
XP_029187962.1       -            338 F-box                PF00646.34    48   3.9e-07   30.7   0.9   1   1   1.4e-09   3.9e-07   30.7   0.9     6    45    43    82    42    84 0.95 F-box/LRR-repeat protein 20-like isoform X2 [Acropora millepora]
XP_029187961.1       -            350 F-box                PF00646.34    48   4.1e-07   30.6   0.9   1   1   1.5e-09   4.1e-07   30.6   0.9     6    45    55    94    54    96 0.95 F-box/LRR-repeat protein 20-like isoform X1 [Acropora millepora]
XP_029199271.1       -            561 F-box                PF00646.34    48   4.4e-07   30.5   6.9   1   2     1e-08   2.9e-06   27.9   5.9     3    48    63   108    61   108 0.95 uncharacterized protein LOC114964121 [Acropora millepora]
XP_029199271.1       -            561 F-box                PF00646.34    48   4.4e-07   30.5   6.9   2   2       5.9   1.7e+03   -0.0   0.0    15    38   497   520   497   525 0.85 uncharacterized protein LOC114964121 [Acropora millepora]
XP_029204120.1       -            468 F-box                PF00646.34    48   4.7e-07   30.5  10.3   1   2     0.062        18    6.3   0.2    25    44    43    62    16    63 0.90 F-box/WD repeat-containing protein 2-like isoform X1 [Acropora millepora]
XP_029204120.1       -            468 F-box                PF00646.34    48   4.7e-07   30.5  10.3   2   2   4.5e-08   1.3e-05   25.9   6.9     5    41    62    98    62   103 0.93 F-box/WD repeat-containing protein 2-like isoform X1 [Acropora millepora]
XP_029209074.1       -            371 F-box                PF00646.34    48   4.7e-07   30.4   2.3   1   1   3.2e-09   9.1e-07   29.5   2.3     6    43   117   154   115   159 0.91 F-box only protein 16-like [Acropora millepora]
XP_029206598.1       -            404 F-box                PF00646.34    48   5.4e-07   30.2   0.6   1   1   9.7e-09   2.7e-06   28.0   0.6     1    44     1    44     1    47 0.95 F-box/LRR-repeat protein 2-like [Acropora millepora]
XP_029181752.1       -            475 F-box                PF00646.34    48   9.3e-07   29.5   1.8   1   1   5.2e-09   1.5e-06   28.9   0.0     3    45     6    48     5    51 0.94 F-box/LRR-repeat protein 7-like [Acropora millepora]
XP_029203231.1       -            411 F-box                PF00646.34    48   9.5e-07   29.5   0.0   1   1   3.4e-09   9.5e-07   29.5   0.0     2    44    22    64    21    67 0.90 F-box/LRR-repeat protein 14-like [Acropora millepora]
XP_029196906.1       -            478 F-box                PF00646.34    48   9.7e-07   29.4   3.2   1   2       5.6   1.6e+03    0.1   0.0     8    18    23    33    12    39 0.72 F-box/WD repeat-containing protein pof1-like [Acropora millepora]
XP_029196906.1       -            478 F-box                PF00646.34    48   9.7e-07   29.4   3.2   2   2   1.6e-08   4.6e-06   27.3   2.3     5    46    56    97    53    99 0.90 F-box/WD repeat-containing protein pof1-like [Acropora millepora]
XP_029180423.1       -            731 F-box                PF00646.34    48   1.2e-06   29.2   0.0   1   1     1e-08   2.9e-06   27.9   0.0     8    45     6    43     6    46 0.95 uncharacterized protein LOC114947991 [Acropora millepora]
XP_029196436.1       -            586 F-box                PF00646.34    48   1.3e-06   29.1   0.0   1   1   1.3e-08   3.7e-06   27.6   0.0    10    47   104   141    93   142 0.93 beta-TrCP-like [Acropora millepora]
XP_029198419.1       -            583 F-box                PF00646.34    48   1.7e-06   28.7   0.9   1   1   3.6e-08     1e-05   26.2   0.1     3    36   235   268   234   276 0.89 F-box/LRR-repeat protein 4-like isoform X1 [Acropora millepora]
XP_029191814.1       -            272 F-box                PF00646.34    48   2.1e-06   28.3   0.0   1   1     2e-08   5.6e-06   27.0   0.0     8    43    11    46     7    50 0.89 uncharacterized protein LOC114958260 [Acropora millepora]
XP_029198420.1       -            539 F-box                PF00646.34    48   2.2e-06   28.3   0.1   1   1   3.2e-08   9.1e-06   26.3   0.1     3    36   235   268   234   276 0.89 F-box/LRR-repeat protein 4-like isoform X2 [Acropora millepora]
XP_029211908.1       -           1210 F-box                PF00646.34    48   2.2e-06   28.3   2.2   1   2   7.9e-09   2.2e-06   28.3   2.2     4    44   827   867   824   871 0.91 uncharacterized protein LOC114975827 [Acropora millepora]
XP_029211908.1       -           1210 F-box                PF00646.34    48   2.2e-06   28.3   2.2   2   2       5.6   1.6e+03    0.1   0.1     4    27  1047  1084  1045  1087 0.73 uncharacterized protein LOC114975827 [Acropora millepora]
XP_029193107.1       -            455 F-box                PF00646.34    48   2.4e-06   28.2   0.8   1   1   3.6e-08     1e-05   26.2   0.8     6    37    29    62    28    66 0.96 uncharacterized protein LOC114959299 [Acropora millepora]
XP_029209707.1       -            478 F-box                PF00646.34    48   2.7e-06   28.0   0.8   1   1   9.7e-09   2.7e-06   28.0   0.8     4    44     2    42     1    45 0.95 F-box/LRR-repeat protein 2-like [Acropora millepora]
XP_029205934.1       -            429 F-box                PF00646.34    48   2.8e-06   28.0   0.6   1   1   2.3e-08   6.5e-06   26.8   0.1     2    46   169   218   168   220 0.95 F-box only protein 9-like isoform X1 [Acropora millepora]
XP_029205935.1       -            429 F-box                PF00646.34    48   2.8e-06   28.0   0.6   1   1   2.3e-08   6.5e-06   26.8   0.1     2    46   169   218   168   220 0.95 F-box only protein 9-like isoform X2 [Acropora millepora]
XP_029199753.1       -           1054 F-box                PF00646.34    48   3.3e-06   27.7   0.4   1   1   2.8e-08   7.8e-06   26.5   0.4    10    46   135   171   119   173 0.87 epithelial cell-transforming sequence 2 oncogene-like [Acropora millepora]
XP_029205309.1       -            595 F-box                PF00646.34    48   4.3e-06   27.4   8.4   1   2   2.2e-08   6.2e-06   26.9   0.5     2    45    12    55    11    58 0.95 F-box/LRR-repeat protein 14-like [Acropora millepora]
XP_029205309.1       -            595 F-box                PF00646.34    48   4.3e-06   27.4   8.4   2   2      0.81   2.3e+02    2.7   0.3    18    44   105   131   104   134 0.83 F-box/LRR-repeat protein 14-like [Acropora millepora]
XP_029183432.1       -           1055 F-box                PF00646.34    48   4.5e-06   27.3   0.2   1   1   1.6e-08   4.5e-06   27.3   0.2     6    45   109   148   105   150 0.94 uncharacterized protein LOC114951401 isoform X1 [Acropora millepora]
XP_029188250.1       -            370 F-box                PF00646.34    48     5e-06   27.2   2.7   1   1   4.1e-08   1.1e-05   26.0   2.7     2    46     8    53     7    55 0.93 uncharacterized protein LOC114955546 [Acropora millepora]
XP_029180656.1       -            432 F-box                PF00646.34    48   6.6e-06   26.8   0.6   1   1   2.3e-08   6.6e-06   26.8   0.6    13    45    27    59    16    62 0.90 F-box/LRR-repeat protein 20-like [Acropora millepora]
XP_029191956.1       -            412 F-box                PF00646.34    48   6.8e-06   26.7   0.3   1   1   2.4e-08   6.8e-06   26.7   0.3     9    39    19    49    16    56 0.91 F-box only protein 22-like [Acropora millepora]
XP_029188663.1       -            432 F-box                PF00646.34    48     8e-06   26.5   0.8   1   1   6.2e-08   1.7e-05   25.4   0.8     3    47     8    52     6    53 0.95 F-box only protein 3-like [Acropora millepora]
XP_029187070.1       -            465 F-box                PF00646.34    48   8.1e-06   26.5   0.3   1   1   9.8e-08   2.8e-05   24.8   0.3    11    47    15    51    10    52 0.90 uncharacterized protein LOC114954636 [Acropora millepora]
XP_029189420.1       -            410 F-box                PF00646.34    48     9e-06   26.4   0.1   1   1   8.7e-08   2.5e-05   25.0   0.1     1    43    81   123    81   127 0.94 F-box only protein 4-like [Acropora millepora]
XP_029179517.1       -            298 F-box                PF00646.34    48   9.6e-06   26.3   0.3   1   2   3.4e-08   9.6e-06   26.3   0.3     2    46    12    58    11    60 0.93 F-box/LRR-repeat protein 15-like [Acropora millepora]
XP_029179517.1       -            298 F-box                PF00646.34    48   9.6e-06   26.3   0.3   2   2       7.5   2.1e+03   -0.4   0.7    23    38   178   193   162   198 0.74 F-box/LRR-repeat protein 15-like [Acropora millepora]
XP_029188159.1       -            420 F-box                PF00646.34    48   9.8e-06   26.2   0.4   1   1   7.2e-08     2e-05   25.2   0.4     5    46   178   219   176   221 0.94 uncharacterized protein LOC114955482 [Acropora millepora]
XP_029180430.1       -            466 F-box                PF00646.34    48   9.8e-06   26.2   5.9   1   1   8.8e-08   2.5e-05   24.9   5.9     2    46    13    57    12    59 0.94 uncharacterized protein LOC114948002 [Acropora millepora]
XP_029202116.1       -            878 F-box                PF00646.34    48   1.3e-05   25.8   0.5   1   1   1.2e-07   3.5e-05   24.5   0.5     6    45   110   149   107   152 0.93 F-box only protein 11-like isoform X2 [Acropora millepora]
XP_029202115.1       -            879 F-box                PF00646.34    48   1.3e-05   25.8   0.5   1   1   1.2e-07   3.5e-05   24.5   0.5     6    45   110   149   107   152 0.93 F-box only protein 11-like isoform X1 [Acropora millepora]
XP_029210183.1       -           1159 F-box                PF00646.34    48   1.6e-05   25.5   0.2   1   1   1.7e-07   4.7e-05   24.1   0.2    10    47   798   835   771   836 0.92 uncharacterized protein LOC114973994 isoform X1 [Acropora millepora]
XP_029210184.1       -           1115 F-box                PF00646.34    48   1.7e-05   25.4   0.2   1   1   1.6e-07   4.5e-05   24.1   0.2    10    47   798   835   771   836 0.92 uncharacterized protein LOC114973994 isoform X2 [Acropora millepora]
XP_029179385.1       -            682 F-box                PF00646.34    48   1.8e-05   25.4   4.6   1   2   1.5e-07   4.1e-05   24.2   0.3     6    43    16    55    12    60 0.88 uncharacterized protein LOC114946904 [Acropora millepora]
XP_029179385.1       -            682 F-box                PF00646.34    48   1.8e-05   25.4   4.6   2   2       3.2   9.1e+02    0.8   0.5    26    46   464   484   461   486 0.85 uncharacterized protein LOC114946904 [Acropora millepora]
XP_029186944.1       -            584 F-box                PF00646.34    48   2.3e-05   25.1   0.2   1   1   2.8e-07     8e-05   23.3   0.2     3    39   406   442   404   444 0.93 F-box only protein 30-like [Acropora millepora]
XP_029209314.1       -            444 F-box                PF00646.34    48   2.9e-05   24.8   1.2   1   1     1e-07   2.9e-05   24.8   1.2     3    46    49    93    47    95 0.90 uncharacterized F-box/LRR-repeat protein C02F5.7-like isoform X2 [Acropora millepora]
XP_029209313.1       -            476 F-box                PF00646.34    48   3.1e-05   24.6   1.2   1   1   1.1e-07   3.1e-05   24.6   1.2     3    46    49    93    47    95 0.90 F-box protein SKP2A-like isoform X1 [Acropora millepora]
XP_029202897.1       -            375 F-box                PF00646.34    48   3.6e-05   24.4   0.9   1   1   1.3e-07   3.6e-05   24.4   0.9     3    44    10    51     9    52 0.94 F-box/LRR-repeat protein 8-like [Acropora millepora]
XP_029185235.1       -            734 F-box                PF00646.34    48   3.7e-05   24.4   4.2   1   1   3.4e-07   9.5e-05   23.1   4.2     2    42    16    56    15    61 0.93 cyclin-F-like [Acropora millepora]
XP_029198533.1       -            500 F-box                PF00646.34    48   3.7e-05   24.4   2.6   1   1   5.1e-07   0.00015   22.5   2.6     3    46    13    57    11    59 0.92 F-box/WD repeat-containing protein 5-like [Acropora millepora]
XP_029212629.1       -            294 F-box                PF00646.34    48   4.5e-05   24.1   0.7   1   1   3.2e-07   9.2e-05   23.1   0.1     3    40    17    55    16    58 0.95 F-box only protein 42-like isoform X2 [Acropora millepora]
XP_029212628.1       -            418 F-box                PF00646.34    48   4.9e-05   24.0   0.1   1   1   5.3e-07   0.00015   22.5   0.1     3    40    17    55    16    58 0.95 F-box only protein 42-like isoform X1 [Acropora millepora]
XP_029194266.1       -            605 F-box                PF00646.34    48   5.5e-05   23.8   0.3   1   1   6.6e-07   0.00019   22.2   0.4     4    46    15    59    12    61 0.85 F-box only protein 21-like isoform X2 [Acropora millepora]
XP_029194265.1       -            606 F-box                PF00646.34    48   5.5e-05   23.8   0.3   1   1   6.6e-07   0.00019   22.2   0.4     4    46    15    59    12    61 0.85 F-box only protein 21-like isoform X1 [Acropora millepora]
XP_029209316.1       -            301 F-box                PF00646.34    48   6.1e-05   23.7   0.9   1   1   2.2e-07   6.1e-05   23.7   0.9     3    46    56   100    54   102 0.90 uncharacterized F-box/LRR-repeat protein C02F5.7-like [Acropora millepora]
XP_029186192.1       -            530 F-box                PF00646.34    48   7.4e-05   23.4   0.3   1   1   1.1e-06   0.00031   21.5   0.0     7    46     5    44     3    46 0.94 uncharacterized protein LOC114953931 isoform X4 [Acropora millepora]
XP_029186194.1       -            530 F-box                PF00646.34    48   7.4e-05   23.4   0.3   1   1   1.1e-06   0.00031   21.5   0.0     7    46     5    44     3    46 0.94 uncharacterized protein LOC114953931 isoform X5 [Acropora millepora]
XP_029211390.1       -            322 F-box                PF00646.34    48   8.2e-05   23.3   0.1   1   1   4.8e-07   0.00014   22.6   0.1    10    42   130   162    39   166 0.83 F-box only protein 43-like [Acropora millepora]
XP_029186189.1       -            583 F-box                PF00646.34    48   8.5e-05   23.3   0.3   1   1   1.2e-06   0.00035   21.3   0.0     7    46     5    44     3    46 0.94 uncharacterized protein LOC114953931 isoform X1 [Acropora millepora]
XP_029197120.1       -            282 F-box                PF00646.34    48   9.7e-05   23.1   0.1   1   1   7.3e-07   0.00021   22.0   0.1     8    46    26    64    20    66 0.90 uncharacterized protein LOC114962329 isoform X2 [Acropora millepora]
XP_029197121.1       -            282 F-box                PF00646.34    48   9.7e-05   23.1   0.1   1   1   7.3e-07   0.00021   22.0   0.1     8    46    26    64    20    66 0.90 uncharacterized protein LOC114962329 isoform X2 [Acropora millepora]
XP_029197122.1       -            282 F-box                PF00646.34    48   9.7e-05   23.1   0.1   1   1   7.3e-07   0.00021   22.0   0.1     8    46    26    64    20    66 0.90 uncharacterized protein LOC114962329 isoform X2 [Acropora millepora]
XP_029210328.1       -            499 F-box                PF00646.34    48   0.00012   22.7   1.0   1   1     2e-06   0.00056   20.6   0.2     7    45   107   152   104   154 0.90 F-box/LRR-repeat protein 6-like isoform X1 [Acropora millepora]
XP_029210329.1       -            410 F-box                PF00646.34    48   0.00017   22.3   1.7   1   1   1.5e-06   0.00043   21.0   0.2     7    45   107   152   104   154 0.90 F-box/LRR-repeat protein 7-like isoform X2 [Acropora millepora]
XP_029211669.1       -            465 F-box                PF00646.34    48   0.00019   22.1   0.1   1   1   6.7e-07   0.00019   22.1   0.1     6    44     5    43     4    46 0.95 uncharacterized F-box/LRR-repeat protein C02F5.7-like [Acropora millepora]
XP_029210327.1       -            502 F-box                PF00646.34    48   0.00031   21.5   1.1   1   2   1.1e-06   0.00031   21.5   1.1     6    44   102   145    98   149 0.92 F-box/LRR-repeat protein 6-like [Acropora millepora]
XP_029210327.1       -            502 F-box                PF00646.34    48   0.00031   21.5   1.1   2   2         6   1.7e+03   -0.0   0.1    21    35   238   252   235   259 0.79 F-box/LRR-repeat protein 6-like [Acropora millepora]
XP_029198154.1       -            252 F-box                PF00646.34    48   0.00032   21.4   0.0   1   1   4.1e-06    0.0012   19.6   0.0     6    41     4    40     1    44 0.91 dynein regulatory complex subunit 6-like [Acropora millepora]
XP_029199724.1       -            361 F-box                PF00646.34    48   0.00048   20.9   0.5   1   1   3.6e-06     0.001   19.8   0.5     9    47    12    50    11    51 0.94 F-box only protein 22-like [Acropora millepora]
XP_029201384.1       -            402 F-box                PF00646.34    48   0.00048   20.9   0.1   1   1   4.6e-06    0.0013   19.5   0.0     8    47    26    65    15    66 0.93 F-box only protein 31-like [Acropora millepora]
XP_029198497.1       -            511 F-box                PF00646.34    48     0.001   19.8   2.7   1   1   1.1e-05    0.0031   18.3   2.5     3    44    13    55    12    58 0.93 F-box/WD repeat-containing protein 5-like [Acropora millepora]
XP_029214079.1       -            417 F-box                PF00646.34    48    0.0019   18.9   1.3   1   1   1.6e-05    0.0046   17.7   1.3     6    39    59    92    56    97 0.90 uncharacterized protein LOC114977516 [Acropora millepora]
XP_029212011.1       -            752 F-box                PF00646.34    48     0.002   18.9   3.5   1   2   1.3e-05    0.0037   18.0   0.6     3    40    37    74    36    81 0.87 F-box only protein 38-like [Acropora millepora]
XP_029212011.1       -            752 F-box                PF00646.34    48     0.002   18.9   3.5   2   2         8   2.3e+03   -0.4   0.1    27    44   435   452   435   456 0.80 F-box only protein 38-like [Acropora millepora]
XP_029195248.1       -            291 F-box                PF00646.34    48    0.0072   17.1   0.2   1   1   7.1e-05      0.02   15.7   0.2     2    43    21    59    20    62 0.86 F-box only protein 8-like [Acropora millepora]
XP_029202778.1       -            178 F-box                PF00646.34    48    0.0083   16.9   0.1   1   1   4.3e-05     0.012   16.4   0.1     9    42     7    40     1    45 0.85 uncharacterized protein LOC114966962 [Acropora millepora]
XP_029194200.1       -            517 F-box                PF00646.34    48     0.011   16.5   0.4   1   1     4e-05     0.011   16.5   0.4     2    46     6    50     5    52 0.94 F-box/LRR-repeat protein 2-like [Acropora millepora]
XP_029212735.1       -            501 F-box                PF00646.34    48     0.012   16.4   0.1   1   1   4.2e-05     0.012   16.4   0.1     5    44   327   366   324   369 0.94 F-box only protein 7-like isoform X2 [Acropora millepora]
XP_029212734.1       -            502 F-box                PF00646.34    48     0.012   16.4   0.1   1   1   4.2e-05     0.012   16.4   0.1     5    44   328   367   325   370 0.94 F-box only protein 7-like isoform X1 [Acropora millepora]
XP_029188887.1       -            471 F-box                PF00646.34    48     0.015   16.1   3.5   1   2   6.3e-05     0.018   15.9   0.4     6    38   100   133    96   142 0.89 F-box/WD repeat-containing protein 9-like isoform X2 [Acropora millepora]
XP_029188887.1       -            471 F-box                PF00646.34    48     0.015   16.1   3.5   2   2       4.8   1.3e+03    0.3   0.2    31    47   235   251   235   252 0.91 F-box/WD repeat-containing protein 9-like isoform X2 [Acropora millepora]
XP_029188886.1       -            495 F-box                PF00646.34    48     0.016   16.0   3.5   1   2   6.7e-05     0.019   15.8   0.4     6    38   100   133    96   142 0.89 F-box/WD repeat-containing protein 9-like isoform X1 [Acropora millepora]
XP_029188886.1       -            495 F-box                PF00646.34    48     0.016   16.0   3.5   2   2         5   1.4e+03    0.2   0.2    31    47   235   251   235   252 0.91 F-box/WD repeat-containing protein 9-like isoform X1 [Acropora millepora]
XP_029204659.1       -            620 F-box                PF00646.34    48     0.018   15.8   0.2   1   1   6.4e-05     0.018   15.8   0.2    12    44    16    48    13    51 0.90 F-box/LRR-repeat protein 14-like [Acropora millepora]
XP_029211346.1       -            241 F-box                PF00646.34    48     0.044   14.6   0.1   1   1    0.0003     0.084   13.7   0.1    17    43    11    37     5    40 0.86 homeobox protein XENK-2-like [Acropora millepora]
XP_029211347.1       -            241 F-box                PF00646.34    48     0.044   14.6   0.1   1   1    0.0003     0.084   13.7   0.1    17    43    11    37     5    40 0.86 homeobox protein XENK-2-like [Acropora millepora]
XP_029211423.1       -            319 F-box                PF00646.34    48      0.08   13.8   0.2   1   1   0.00087      0.25   12.2   0.2    12    39   132   159   128   173 0.92 F-box only protein 43-like isoform X1 [Acropora millepora]
XP_029212149.1       -            520 F-box                PF00646.34    48      0.12   13.2   1.9   1   2     0.037        10    7.0   0.2    13    31   360   378   354   379 0.88 TELO2-interacting protein 2-like [Acropora millepora]
XP_029212149.1       -            520 F-box                PF00646.34    48      0.12   13.2   1.9   2   2      0.47   1.3e+02    3.5   0.0    10    24   399   413   382   414 0.92 TELO2-interacting protein 2-like [Acropora millepora]
XP_029213445.1       -           1068 F-box                PF00646.34    48      0.13   13.1   0.5   1   1    0.0013      0.37   11.6   0.5     5    40   369   404   365   408 0.89 CMT1A duplicated region transcript 1 protein-like [Acropora millepora]
XP_029211427.1       -            261 F-box                PF00646.34    48      0.48   11.3   4.9   1   1   0.00083      0.24   12.3   0.7    11    37    73    99    39   105 0.86 F-box only protein 43-like [Acropora millepora]
#
# Program:         hmmsearch
# Version:         3.3 (Nov 2019)
# Pipeline mode:   SEARCH
# Query file:      01_HMMs/02_F-box.hmm
# Target file:     02_Proteoms/05_AMIL_proteom.fa
# Option settings: hmmsearch --domtblout 03_Results_Hmmer/2_5.txt 01_HMMs/02_F-box.hmm 02_Proteoms/05_AMIL_proteom.fa 
# Current dir:     /home/paul/Documents
# Date:            Fri Jun 26 13:25:42 2020
# [ok]
