#	accession	name	accession	to	from
#-------------------	--------------------	---------	------	----	---------------------
XP_029185339.1	PHD_3	2.3e-17	64.1	0.74	putative
XP_029206035.1	PHD_3	0.0018	19.6	0.64	CXXC-type
XP_029206035.1	PHD_3	0.0018	19.6	0.57	CXXC-type
