#	accession	name	accession	to	from
#-------------------	--------------------	---------	------	----	---------------------
XP_004349056.2	PHD_4	0.0014	17.6	0.80	hypothetical
XP_004349191.1	PHD_4	0.042	12.9	0.80	hypothetical
XP_004344434.2	PHD_4	0.044	12.9	0.81	hypothetical
