#                                                                            --- full sequence --- -------------- this domain -------------   hmm coord   ali coord   env coord
# target name        accession   tlen query name           accession   qlen   E-value  score  bias   #  of  c-Evalue  i-Evalue  score  bias  from    to  from    to  from    to  acc description of target
#------------------- ---------- ----- -------------------- ---------- ----- --------- ------ ----- --- --- --------- --------- ------ ----- ----- ----- ----- ----- ----- ----- ---- ---------------------
NP_190242.1          -            182 MBD                  PF01429.20    77   3.1e-27   95.5   0.2   1   1   3.6e-30   5.1e-27   94.8   0.2     2    76    26   136    25   137 0.98 methyl-CPG-binding domain protein 5 [Arabidopsis thaliana]
NP_186795.1          -           2176 MBD                  PF01429.20    77   6.9e-25   87.9   0.0   1   1   1.3e-27   1.8e-24   86.6   0.0     1    76   258   373   258   374 0.98 methyl-CPG-binding domain 9 [Arabidopsis thaliana]
NP_200788.1          -            306 MBD                  PF01429.20    77   2.2e-24   86.3   1.2   1   3   1.3e-06    0.0019   19.3   0.0     7    54    27    73    21    96 0.82 methyl-CPG-binding domain 7 [Arabidopsis thaliana]
NP_200788.1          -            306 MBD                  PF01429.20    77   2.2e-24   86.3   1.2   2   3   2.4e-10   3.4e-07   31.2   0.3    10    64   115   167   110   171 0.87 methyl-CPG-binding domain 7 [Arabidopsis thaliana]
NP_200788.1          -            306 MBD                  PF01429.20    77   2.2e-24   86.3   1.2   3   3   7.3e-11     1e-07   32.9   0.0     5    58   176   227   172   245 0.85 methyl-CPG-binding domain 7 [Arabidopsis thaliana]
NP_200746.1          -            225 MBD                  PF01429.20    77   1.3e-19   71.1   0.1   1   1   1.4e-22     2e-19   70.4   0.1     3    75    73   178    71   180 0.93 methyl-CPG-binding domain 6 [Arabidopsis thaliana]
NP_567667.2          -            204 MBD                  PF01429.20    77   5.3e-15   56.3   0.1   1   1   8.2e-18   1.2e-14   55.2   0.0     6    75   115   181   110   183 0.92 methyl-CPG-binding domain 1 [Arabidopsis thaliana]
NP_191862.1          -            186 MBD                  PF01429.20    77   1.2e-13   52.0   0.0   1   1   1.2e-16   1.8e-13   51.4   0.0     8    75    90   154    83   156 0.91 methyl-CPG-binding domain 4 [Arabidopsis thaliana]
NP_563971.1          -            384 MBD                  PF01429.20    77   1.3e-13   51.9   0.0   1   1   1.6e-16   2.3e-13   51.0   0.0     6    74     9    74     4    77 0.92 methyl-CPG-binding domain 10 [Arabidopsis thaliana]
NP_001319562.1       -            254 MBD                  PF01429.20    77   2.9e-12   47.5   0.0   1   1   3.4e-15   4.8e-12   46.8   0.0     7    72    10    72     5    77 0.91 methyl-CPG-binding domain 11 [Arabidopsis thaliana]
NP_001326173.1       -            254 MBD                  PF01429.20    77   2.9e-12   47.5   0.0   1   1   3.4e-15   4.8e-12   46.8   0.0     7    72    10    72     5    77 0.91 methyl-CPG-binding domain 11 [Arabidopsis thaliana]
NP_188200.1          -            254 MBD                  PF01429.20    77   2.9e-12   47.5   0.0   1   1   3.4e-15   4.8e-12   46.8   0.0     7    72    10    72     5    77 0.91 methyl-CPG-binding domain 11 [Arabidopsis thaliana]
NP_001190421.1       -            272 MBD                  PF01429.20    77   6.6e-12   46.3   0.0   1   1     8e-15   1.1e-11   45.6   0.0     9    70   126   188   118   194 0.90 methyl-CPG-binding domain protein 02 [Arabidopsis thaliana]
NP_001331130.1       -            272 MBD                  PF01429.20    77   6.6e-12   46.3   0.0   1   1     8e-15   1.1e-11   45.6   0.0     9    70   126   188   118   194 0.90 methyl-CPG-binding domain protein 02 [Arabidopsis thaliana]
NP_198383.1          -            272 MBD                  PF01429.20    77   6.6e-12   46.3   0.0   1   1     8e-15   1.1e-11   45.6   0.0     9    70   126   188   118   194 0.90 methyl-CPG-binding domain protein 02 [Arabidopsis thaliana]
NP_974850.1          -            272 MBD                  PF01429.20    77   6.6e-12   46.3   0.0   1   1     8e-15   1.1e-11   45.6   0.0     9    70   126   188   118   194 0.90 methyl-CPG-binding domain protein 02 [Arabidopsis thaliana]
NP_001185003.1       -            332 MBD                  PF01429.20    77   1.9e-11   44.8   0.0   1   1   2.2e-14   3.2e-11   44.2   0.0     6    60     9    61     4   118 0.86 methyl-CPG-binding domain 10 [Arabidopsis thaliana]
NP_974851.1          -            155 MBD                  PF01429.20    77   9.7e-10   39.4   0.1   1   1   1.2e-12   1.7e-09   38.6   0.1     7    70    59   122    54   128 0.83 methyl-CPG-binding domain 12 [Arabidopsis thaliana]
NP_567177.1          -            163 MBD                  PF01429.20    77   5.6e-09   37.0   0.0   1   1   6.8e-12   9.6e-09   36.2   0.0    11    72    75   135    68   145 0.89 methyl-CPG-binding domain 3 [Arabidopsis thaliana]
NP_850949.1          -            425 MBD                  PF01429.20    77   8.2e-08   33.2   0.1   1   1   1.6e-10   2.3e-07   31.8   0.1    10    56   244   290   241   310 0.90 methyl-CPG-binding domain 8 [Arabidopsis thaliana]
NP_173650.3          -            524 MBD                  PF01429.20    77   1.2e-07   32.7   0.1   1   1   2.2e-10   3.1e-07   31.4   0.1    10    56   343   389   340   409 0.90 methyl-CPG-binding domain 8 [Arabidopsis thaliana]
NP_001326243.1       -            935 MBD                  PF01429.20    77   0.00084   20.4   0.2   1   1   1.6e-06    0.0022   19.0   0.2    14    46   255   285   245   293 0.84 Acyl-CoA N-acyltransferase with RING/FYVE/PHD-type zinc finger protein [Arabidopsis thaliana]
NP_001326246.1       -           1048 MBD                  PF01429.20    77     0.001   20.1   0.2   1   1   1.8e-06    0.0025   18.8   0.2    14    46   255   285   245   293 0.84 Acyl-CoA N-acyltransferase with RING/FYVE/PHD-type zinc finger protein [Arabidopsis thaliana]
NP_001326244.1       -           1144 MBD                  PF01429.20    77    0.0012   19.9   0.2   1   1     2e-06    0.0028   18.7   0.2    14    46   210   240   200   248 0.84 Acyl-CoA N-acyltransferase with RING/FYVE/PHD-type zinc finger protein [Arabidopsis thaliana]
NP_001326242.1       -           1189 MBD                  PF01429.20    77    0.0012   19.9   0.2   1   1   2.1e-06    0.0029   18.6   0.2    14    46   255   285   245   293 0.84 Acyl-CoA N-acyltransferase with RING/FYVE/PHD-type zinc finger protein [Arabidopsis thaliana]
NP_001326245.1       -           1189 MBD                  PF01429.20    77    0.0012   19.9   0.2   1   1   2.1e-06    0.0029   18.6   0.2    14    46   255   285   245   293 0.84 Acyl-CoA N-acyltransferase with RING/FYVE/PHD-type zinc finger protein [Arabidopsis thaliana]
NP_188116.1          -           1189 MBD                  PF01429.20    77    0.0012   19.9   0.2   1   1   2.1e-06    0.0029   18.6   0.2    14    46   255   285   245   293 0.84 Acyl-CoA N-acyltransferase with RING/FYVE/PHD-type zinc finger protein [Arabidopsis thaliana]
NP_001330177.1       -            902 MBD                  PF01429.20    77     0.078   14.1   0.1   1   1   0.00016      0.23   12.6   0.1     8    46   398   433   393   454 0.80 Acyl-CoA N-acyltransferase with RING/FYVE/PHD-type zinc finger protein [Arabidopsis thaliana]
NP_001330178.1       -            902 MBD                  PF01429.20    77     0.078   14.1   0.1   1   1   0.00016      0.23   12.6   0.1     8    46   398   433   393   454 0.80 Acyl-CoA N-acyltransferase with RING/FYVE/PHD-type zinc finger protein [Arabidopsis thaliana]
NP_001332122.1       -            902 MBD                  PF01429.20    77     0.078   14.1   0.1   1   1   0.00016      0.23   12.6   0.1     8    46   398   433   393   454 0.80 RING/FYVE/PHD zinc finger superfamily protein [Arabidopsis thaliana]
NP_001330179.1       -           1026 MBD                  PF01429.20    77     0.098   13.7   0.1   1   1   0.00018      0.26   12.4   0.1     8    46   245   280   240   301 0.80 Acyl-CoA N-acyltransferase with RING/FYVE/PHD-type zinc finger protein [Arabidopsis thaliana]
NP_001332123.1       -           1040 MBD                  PF01429.20    77       0.1   13.7   0.1   1   1   0.00019      0.27   12.4   0.1     8    46   245   280   240   301 0.80 RING/FYVE/PHD zinc finger superfamily protein [Arabidopsis thaliana]
NP_564812.1          -            548 MBD                  PF01429.20    77       0.1   13.7   0.0   1   1   0.00027      0.38   11.9   0.0    10    57    17    61    12   102 0.85 hypothetical protein AT1G63240 [Arabidopsis thaliana]
NP_001329378.1       -           1139 MBD                  PF01429.20    77      0.16   13.0   0.0   1   1   0.00037      0.52   11.4   0.0     4    42   373   408   370   433 0.83 Acyl-CoA N-acyltransferase with RING/FYVE/PHD-type zinc finger protein [Arabidopsis thaliana]
NP_001329379.1       -           1138 MBD                  PF01429.20    77      0.16   13.0   0.0   1   1   0.00037      0.52   11.4   0.0     4    42   373   408   370   433 0.83 Acyl-CoA N-acyltransferase with RING/FYVE/PHD-type zinc finger protein [Arabidopsis thaliana]
NP_193228.6          -           1138 MBD                  PF01429.20    77      0.16   13.0   0.0   1   1   0.00037      0.52   11.4   0.0     4    42   373   408   370   433 0.83 Acyl-CoA N-acyltransferase with RING/FYVE/PHD-type zinc finger protein [Arabidopsis thaliana]
#
# Program:         hmmsearch
# Version:         3.3 (Nov 2019)
# Pipeline mode:   SEARCH
# Query file:      01_HMMs/04_MBD.hmm
# Target file:     02_Proteoms/26_ATHA_proteom.fa
# Option settings: hmmsearch --domtblout 03_Results_Hmmer/4_26.txt 01_HMMs/04_MBD.hmm 02_Proteoms/26_ATHA_proteom.fa 
# Current dir:     /home/paul/Documents
# Date:            Sun Jun 28 15:59:57 2020
# [ok]
