#	accession	name	accession	to	from
#-------------------	--------------------	---------	------	----	---------------------
NP_680558.2	PHD_3	0.068	14.9	0.79	Cysteine/Histidine-rich
NP_680558.2	PHD_3	0.068	14.9	0.60	Cysteine/Histidine-rich
NP_192891.1	PHD_3	7	8.5	0.77	Cysteine/Histidine-rich
