#	accession	name	accession	to	from
#-------------------	--------------------	---------	------	----	---------------------
XP_029185339.1	ASXH	2.5e-41	142.0	0.70	putative
XP_029185339.1	ASXH	2.5e-41	142.0	0.97	putative
XP_029203402.1	ASXH	1.2	10.2	0.74	triple
