#	accession	name	accession	to	from
#-------------------	--------------------	---------	------	----	---------------------
XP_031553199.1	HARE-HTH	9.9e-17	61.6	0.97	putative
XP_031553197.1	HARE-HTH	6.6e-14	52.6	0.97	putative
XP_031565583.1	HARE-HTH	1.8e-09	38.4	0.93	uncharacterized
