#	accession	name	accession	to	from
#-------------------	--------------------	---------	------	----	---------------------
NP_733291.1	F-box	1.2e-12	48.1	0.94	F-box
NP_001263069.1	F-box	2.2e-12	47.2	0.94	F-box
NP_651696.1	F-box	2.2e-12	47.2	0.94	F-box
