#	accession	name	accession	to	from
#-------------------	--------------------	---------	------	----	---------------------
NP_731370.1	MBD	5.7e-36	122.8	0.97	Methyl-CpG
NP_731370.1	MBD	5.7e-36	122.8	0.82	Methyl-CpG
NP_001262421.1	MBD	3.1e-34	117.2	0.96	Methyl-CpG
