#	accession	name	accession	to	from
#-------------------	--------------------	---------	------	----	---------------------
XP_027055099.1	zf-CW	5.7e-17	61.9	0.96	MORC
XP_027036986.1	zf-CW	5.8e-12	45.9	0.84	MORC
XP_027036986.1	zf-CW	5.8e-12	45.9	0.95	MORC
