#	accession	name	accession	to	from
#-------------------	--------------------	---------	------	----	---------------------
XP_003382807.2	F-box	2.5e-11	43.5	0.96	PREDICTED:
XP_019851981.1	F-box	6.9e-11	42.1	0.95	PREDICTED:
XP_003387849.2	F-box	2e-10	40.6	0.89	PREDICTED:
