#	accession	name	accession	to	from
#-------------------	--------------------	---------	------	----	---------------------
XP_020914914.1	HARE-HTH	2.2e-15	57.4	0.95	putative
XP_020897219.1	HARE-HTH	2.1e-05	25.4	0.88	uncharacterized
XP_020895029.1	HARE-HTH	0.28	12.2	0.77	ubiquitin-conjugating
