#	accession	name	accession	to	from
#-------------------	--------------------	---------	------	----	---------------------
HMIM018939-PA	HARE-HTH	0.2	12.3	0.67	pep
HMIM018939-PA	HARE-HTH	0.2	12.3	0.74	pep
HMIM018939-PA	HARE-HTH	0.2	12.3	0.81	pep
