#	accession	name	accession	to	from
#-------------------	--------------------	---------	------	----	---------------------
XP_958783.2	F-box	2.7e-12	45.5	0.93	cell
XP_011395060.1	F-box	6.8e-10	37.9	0.82	hypothetical
XP_011395060.1	F-box	6.8e-10	37.9	0.93	hypothetical
